
     Program PWSCF v.5.4.0 (svn rev. 12392M) starts on  7May2016 at 11:40:35 

     This program is part of the open-source Quantum ESPRESSO suite
     for quantum simulation of materials; please cite
         "P. Giannozzi et al., J. Phys.:Condens. Matter 21 395502 (2009);
          URL http://www.quantum-espresso.org", 
     in publications or presentations arising from this work. More details at
     http://www.quantum-espresso.org/quote

     Parallel version (MPI), running on     1 processors
     Waiting for input...
     Reading input from standard input
     Message from routine read_cards :
     DEPRECATED: no units specified in ATOMIC_POSITIONS card
     Message from routine read_cards :
     ATOMIC_POSITIONS: units set to alat

     Current dimensions of program PWSCF are:
     Max number of different atomic species (ntypx) = 10
     Max number of k-points (npk) =  40000
     Max angular momentum in pseudopotentials (lmaxx) =  3
               file H.pbe-vbc.UPF: wavefunction(s)  1S renormalized

     Subspace diagonalization in iterative solution of the eigenvalue problem:
     a serial algorithm will be used

     Message from routine kpoint_grid:
     ATTENTION: skip check of k-points equivalence

     G-vector sticks info
     --------------------
     sticks:   dense  smooth     PW     G-vecs:    dense   smooth      PW
     Sum         717     717    177                14363    14363    1791



     bravais-lattice index     =            1
     lattice parameter (alat)  =      15.0000  a.u.
     unit-cell volume          =    3375.0000 (a.u.)^3
     number of atoms/cell      =            2
     number of atomic types    =            1
     number of electrons       =         2.00
     number of Kohn-Sham states=            8
     kinetic-energy cutoff     =      10.0000  Ry
     charge density cutoff     =      40.0000  Ry
     convergence threshold     =      5.0E-13
     mixing beta               =       0.7000
     number of iterations used =            8  plain     mixing
     Exchange-correlation      =  SLA  PW   PBE  PBE ( 1  4  3  4 0 0)

     celldm(1)=  15.000000  celldm(2)=   0.000000  celldm(3)=   0.000000
     celldm(4)=   0.000000  celldm(5)=   0.000000  celldm(6)=   0.000000

     crystal axes: (cart. coord. in units of alat)
               a(1) = (   1.000000   0.000000   0.000000 )  
               a(2) = (   0.000000   1.000000   0.000000 )  
               a(3) = (   0.000000   0.000000   1.000000 )  

     reciprocal axes: (cart. coord. in units 2 pi/alat)
               b(1) = (  1.000000  0.000000  0.000000 )  
               b(2) = (  0.000000  1.000000  0.000000 )  
               b(3) = (  0.000000  0.000000  1.000000 )  


     PseudoPot. # 1 for H  read from file:
     ../pseudo/H.pbe-vbc.UPF
     MD5 check sum: 9cf9aca649a2d0af84bda0649e452bb4
     Pseudo is Norm-conserving, Zval =  1.0
     Generated by new atomic code, or converted to UPF format
     Using radial grid of  131 points,  0 beta functions with: 

     atomic species   valence    mass     pseudopotential
        H              1.00     1.00790     H ( 1.00)

     No symmetry found



   Cartesian axes

     site n.     atom                  positions (alat units)
         1           H   tau(   1) = (   0.0000000   0.0000000   0.0000000  )
         2           H   tau(   2) = (   3.4642000   3.4642000   3.4642000  )

     number of k points=     1
                       cart. coord. in units 2pi/alat
        k(    1) = (   0.0000000   0.0000000   0.0000000), wk =   2.0000000

     Dense  grid:    14363 G-vectors     FFT dimensions: (  32,  32,  32)

     Largest allocated arrays     est. size (Mb)     dimensions
        Kohn-Sham Wavefunctions         0.22 Mb     (    1791,    8)
        NL pseudopotentials             0.00 Mb     (    1791,    0)
        Each V/rho on FFT grid          0.50 Mb     (   32768)
        Each G-vector array             0.11 Mb     (   14363)
        G-vector shells                 0.00 Mb     (     192)
     Largest temporary arrays     est. size (Mb)     dimensions
        Auxiliary wavefunctions         0.87 Mb     (    1791,   32)
        Each subspace H/S matrix        0.02 Mb     (      32,   32)
        Each <psi_i|beta_j> matrix      0.00 Mb     (       0,    8)
        Arrays for rho mixing           4.00 Mb     (   32768,    8)

     Initial potential from superposition of free atoms
     Check: negative starting charge=   -0.048102

     starting charge    1.99995, renormalised to    2.00000

     negative rho (up, down):  4.810E-02 0.000E+00
     Starting wfc are    2 randomized atomic wfcs +    6 random wfc

     total cpu time spent up to now is        0.0 secs

     per-process dynamical memory:    10.8 Mb

     Self-consistent Calculation

     iteration #  1     ecut=    10.00 Ry     beta=0.70
     Davidson diagonalization with overlap
     ethr =  1.00E-02,  avg # of iterations =  9.0

     Threshold (ethr) on eigenvalues was too large:
     Diagonalizing with lowered threshold

     Davidson diagonalization with overlap
     ethr =  2.49E-04,  avg # of iterations =  2.0

     negative rho (up, down):  5.531E-03 0.000E+00

     total cpu time spent up to now is        0.1 secs

     total energy              =      -1.74050499 Ry
     Harris-Foulkes estimate   =      -1.73784233 Ry
     estimated scf accuracy    <       0.00553678 Ry

     iteration #  2     ecut=    10.00 Ry     beta=0.70
     Davidson diagonalization with overlap
     ethr =  2.77E-04,  avg # of iterations =  1.0

     negative rho (up, down):  5.374E-03 0.000E+00

     total cpu time spent up to now is        0.2 secs

     total energy              =      -1.73429564 Ry
     Harris-Foulkes estimate   =      -1.75802775 Ry
     estimated scf accuracy    <       0.82213398 Ry

     iteration #  3     ecut=    10.00 Ry     beta=0.70
     Davidson diagonalization with overlap
     ethr =  2.77E-04,  avg # of iterations =  1.0

     negative rho (up, down):  5.202E-04 0.000E+00

     total cpu time spent up to now is        0.2 secs

     total energy              =      -1.73587414 Ry
     Harris-Foulkes estimate   =      -1.74432175 Ry
     estimated scf accuracy    <       0.59579429 Ry

     iteration #  4     ecut=    10.00 Ry     beta=0.70
     Davidson diagonalization with overlap
     ethr =  2.77E-04,  avg # of iterations =  1.0

     total cpu time spent up to now is        0.2 secs

     total energy              =      -1.73358157 Ry
     Harris-Foulkes estimate   =      -1.74638497 Ry
     estimated scf accuracy    <       0.67360961 Ry

     iteration #  5     ecut=    10.00 Ry     beta=0.70
     Davidson diagonalization with overlap
     ethr =  2.77E-04,  avg # of iterations =  1.0

     total cpu time spent up to now is        0.2 secs

     total energy              =      -1.74300600 Ry
     Harris-Foulkes estimate   =      -1.74820217 Ry
     estimated scf accuracy    <       0.73390194 Ry

     iteration #  6     ecut=    10.00 Ry     beta=0.70
     Davidson diagonalization with overlap
     ethr =  2.77E-04,  avg # of iterations =  1.0

     total cpu time spent up to now is        0.3 secs

     total energy              =      -1.74182941 Ry
     Harris-Foulkes estimate   =      -1.74347627 Ry
     estimated scf accuracy    <       0.36567531 Ry

     iteration #  7     ecut=    10.00 Ry     beta=0.70
     Davidson diagonalization with overlap
     ethr =  2.77E-04,  avg # of iterations =  1.0

     total cpu time spent up to now is        0.3 secs

     total energy              =      -1.74249464 Ry
     Harris-Foulkes estimate   =      -1.74249088 Ry
     estimated scf accuracy    <       0.00123367 Ry

     iteration #  8     ecut=    10.00 Ry     beta=0.70
     Davidson diagonalization with overlap
     ethr =  6.17E-05,  avg # of iterations =  1.0

     total cpu time spent up to now is        0.3 secs

     total energy              =      -1.74266958 Ry
     Harris-Foulkes estimate   =      -1.74249616 Ry
     estimated scf accuracy    <       0.00407675 Ry

     iteration #  9     ecut=    10.00 Ry     beta=0.70
     Davidson diagonalization with overlap
     ethr =  6.17E-05,  avg # of iterations =  1.0

     total cpu time spent up to now is        0.4 secs

     total energy              =      -1.74057384 Ry
     Harris-Foulkes estimate   =      -1.74350545 Ry
     estimated scf accuracy    <       0.37209106 Ry

     iteration # 10     ecut=    10.00 Ry     beta=0.70
     Davidson diagonalization with overlap
     ethr =  6.17E-05,  avg # of iterations =  1.0

     total cpu time spent up to now is        0.4 secs

     total energy              =      -1.74143788 Ry
     Harris-Foulkes estimate   =      -1.74298115 Ry
     estimated scf accuracy    <       0.22028688 Ry

     iteration # 11     ecut=    10.00 Ry     beta=0.70
     Davidson diagonalization with overlap
     ethr =  6.17E-05,  avg # of iterations =  1.0

     total cpu time spent up to now is        0.4 secs

     total energy              =      -1.74195394 Ry
     Harris-Foulkes estimate   =      -1.74274611 Ry
     estimated scf accuracy    <       0.12757639 Ry

     iteration # 12     ecut=    10.00 Ry     beta=0.70
     Davidson diagonalization with overlap
     ethr =  6.17E-05,  avg # of iterations =  1.0

     total cpu time spent up to now is        0.5 secs

     total energy              =      -1.74238557 Ry
     Harris-Foulkes estimate   =      -1.74259597 Ry
     estimated scf accuracy    <       0.05571230 Ry

     iteration # 13     ecut=    10.00 Ry     beta=0.70
     Davidson diagonalization with overlap
     ethr =  6.17E-05,  avg # of iterations =  1.0

     total cpu time spent up to now is        0.5 secs

     total energy              =      -1.74249409 Ry
     Harris-Foulkes estimate   =      -1.74249294 Ry
     estimated scf accuracy    <       0.00008973 Ry

     iteration # 14     ecut=    10.00 Ry     beta=0.70
     Davidson diagonalization with overlap
     ethr =  4.49E-06,  avg # of iterations =  1.0

     total cpu time spent up to now is        0.6 secs

     total energy              =      -1.74248633 Ry
     Harris-Foulkes estimate   =      -1.74249611 Ry
     estimated scf accuracy    <       0.00188271 Ry

     iteration # 15     ecut=    10.00 Ry     beta=0.70
     Davidson diagonalization with overlap
     ethr =  4.49E-06,  avg # of iterations =  1.0

     total cpu time spent up to now is        0.6 secs

     total energy              =      -1.74248949 Ry
     Harris-Foulkes estimate   =      -1.74249356 Ry
     estimated scf accuracy    <       0.00043391 Ry

     iteration # 16     ecut=    10.00 Ry     beta=0.70
     Davidson diagonalization with overlap
     ethr =  4.49E-06,  avg # of iterations =  1.0

     total cpu time spent up to now is        0.7 secs

     total energy              =      -1.74249241 Ry
     Harris-Foulkes estimate   =      -1.74249497 Ry
     estimated scf accuracy    <       0.00123077 Ry

     iteration # 17     ecut=    10.00 Ry     beta=0.70
     Davidson diagonalization with overlap
     ethr =  4.49E-06,  avg # of iterations =  1.0

     total cpu time spent up to now is        0.7 secs

     total energy              =      -1.74249291 Ry
     Harris-Foulkes estimate   =      -1.74249337 Ry
     estimated scf accuracy    <       0.00013943 Ry

     iteration # 18     ecut=    10.00 Ry     beta=0.70
     Davidson diagonalization with overlap
     ethr =  4.49E-06,  avg # of iterations =  1.0

     total cpu time spent up to now is        0.8 secs

     total energy              =      -1.74249314 Ry
     Harris-Foulkes estimate   =      -1.74249314 Ry
     estimated scf accuracy    <       0.00000017 Ry

     iteration # 19     ecut=    10.00 Ry     beta=0.70
     Davidson diagonalization with overlap
     ethr =  8.38E-09,  avg # of iterations =  1.0

     total cpu time spent up to now is        0.8 secs

     total energy              =      -1.74249314 Ry
     Harris-Foulkes estimate   =      -1.74249314 Ry
     estimated scf accuracy    <       0.00000042 Ry

     iteration # 20     ecut=    10.00 Ry     beta=0.70
     Davidson diagonalization with overlap
     ethr =  8.38E-09,  avg # of iterations =  1.0

     total cpu time spent up to now is        0.9 secs

     total energy              =      -1.74249322 Ry
     Harris-Foulkes estimate   =      -1.74249314 Ry
     estimated scf accuracy    <          6.3E-10 Ry

     iteration # 21     ecut=    10.00 Ry     beta=0.70
     Davidson diagonalization with overlap
     ethr =  3.16E-11,  avg # of iterations =  1.0

     total cpu time spent up to now is        0.9 secs

     total energy              =      -1.74249322 Ry
     Harris-Foulkes estimate   =      -1.74249322 Ry
     estimated scf accuracy    <       0.00000003 Ry

     iteration # 22     ecut=    10.00 Ry     beta=0.70
     Davidson diagonalization with overlap
     ethr =  3.16E-11,  avg # of iterations =  1.0

     total cpu time spent up to now is        0.9 secs

     total energy              =      -1.74249322 Ry
     Harris-Foulkes estimate   =      -1.74249322 Ry
     estimated scf accuracy    <          2.5E-12 Ry

     iteration # 23     ecut=    10.00 Ry     beta=0.70
     Davidson diagonalization with overlap
     ethr =  1.26E-13,  avg # of iterations =  1.0

     total cpu time spent up to now is        1.0 secs

     total energy              =      -1.74249322 Ry
     Harris-Foulkes estimate   =      -1.74249322 Ry
     estimated scf accuracy    <          9.3E-13 Ry

     iteration # 24     ecut=    10.00 Ry     beta=0.70
     Davidson diagonalization with overlap
     ethr =  1.00E-13,  avg # of iterations =  1.0

     total cpu time spent up to now is        1.0 secs

     End of self-consistent calculation

          k = 0.0000 0.0000 0.0000 (  1791 PWs)   bands (ev):

    -6.1658  -6.1268  -0.4346   0.8661   0.8661   0.8668   1.4988   1.4989

     highest occupied, lowest unoccupied level (ev):    -6.1658   -6.1268

!    total energy              =      -1.74249322 Ry
     Harris-Foulkes estimate   =      -1.74249322 Ry
     estimated scf accuracy    <          7.2E-14 Ry

     The total energy is the sum of the following terms:

     one-electron contribution =      -0.93741565 Ry
     hartree contribution      =       0.61224552 Ry
     xc contribution           =      -0.93317389 Ry
     ewald contribution        =      -0.48414920 Ry

     convergence has been achieved in  24 iterations

     Writing output data file H2.save

     init_run     :      0.03s CPU      0.04s WALL (       1 calls)
     electrons    :      0.97s CPU      0.98s WALL (       1 calls)

     Called by init_run:
     wfcinit      :      0.01s CPU      0.01s WALL (       1 calls)
     potinit      :      0.02s CPU      0.03s WALL (       1 calls)

     Called by electrons:
     c_bands      :      0.33s CPU      0.33s WALL (      25 calls)
     sum_band     :      0.08s CPU      0.09s WALL (      25 calls)
     v_of_rho     :      0.47s CPU      0.47s WALL (      25 calls)
     mix_rho      :      0.09s CPU      0.10s WALL (      25 calls)

     Called by c_bands:
     cegterg      :      0.33s CPU      0.33s WALL (      25 calls)

     Called by sum_band:

     Called by *egterg:
     h_psi        :      0.23s CPU      0.23s WALL (      60 calls)
     g_psi        :      0.00s CPU      0.00s WALL (      34 calls)
     cdiaghg      :      0.00s CPU      0.01s WALL (      58 calls)

     Called by h_psi:

     General routines
     fft          :      0.09s CPU      0.09s WALL (     276 calls)
     fftw         :      0.23s CPU      0.22s WALL (    1082 calls)

     Parallel routines
     fft_scatter  :      0.07s CPU      0.08s WALL (    1358 calls)

     PWSCF        :     1.03s CPU         1.05s WALL


   This run was terminated on:  11:40:36   7May2016            

=------------------------------------------------------------------------------=
   JOB DONE.
=------------------------------------------------------------------------------=
