
     Program ACFDT v.5.4.0 (svn rev. 12392M) starts on  7May2016 at 11:22:51 

     This program is part of the open-source Quantum ESPRESSO suite
     for quantum simulation of materials; please cite
         "P. Giannozzi et al., J. Phys.:Condens. Matter 21 395502 (2009);
          URL http://www.quantum-espresso.org", 
     in publications or presentations arising from this work. More details at
     http://www.quantum-espresso.org/quote

     Parallel version (MPI), running on     1 processors

     Ultrasoft (Vanderbilt) Pseudopotentials

     Reading data from directory:
     /home/degironc/QE/SVN/AA/espresso/tempdir/Be-1.save

   Info: using nr1, nr2, nr3 values from input

   Info: using nr1, nr2, nr3 values from input

     IMPORTANT: XC functional enforced from input :
     Exchange-correlation      = SLA  PZ   NOGX NOGC ( 1  1  0  0 0 0)
     Any further DFT definition will be discarded
     Please, verify this is what you really want

               file Be.EXX-fhi.UPF: wavefunction(s)  3S renormalized

     G-vector sticks info
     --------------------
     sticks:   dense  smooth     PW     G-vecs:    dense   smooth      PW
     Sum         717     717    177                14363    14363    1791


     Calculation of q =    0.0000000   0.0000000   0.0000000
     Calculation of Dielectric Eigenmodes: Davidson diagonalization

       lgamma = T,  lgamma_gamma = F

       ngm =  14363    nrxx =  32768

       nf_ec = 10   u0_ec =  30.00   neigv =   20
       thr_ec =  1.0E-05     tr2_ph =  1.0E-10

     HOMO-LUMO gap     c-PARAMETER
            0.27546760     0.21894528

     List of frequency and weight
            0.00573813     0.01490056
            0.03177191     0.03818824
            0.08504608     0.07034189
            0.17784210     0.11888112
            0.33314632     0.19911114
            0.59894216     0.35015885
            1.09443482     0.69278349
            2.19341493     1.71067290
            5.60440124     6.49556010
           30.00000000    77.23371743



     RPA Ec calculation in ACFD theory


       Calculating eigenvalues at frequency iu =     0.00573813

       Generate   20  random potentials

       Write   20  potentials to disk

       Converged eigenvalues in ascending order

%           -1.9917710     -1.9917708     -1.9917695     -0.5880331     -0.2539103     -0.2539102     -0.2441400     -0.2441399     -0.2441399     -0.1485052
%           -0.1485051     -0.1485048     -0.0779124     -0.0758924     -0.0758924     -0.0758922     -0.0755738     -0.0755737     -0.0755736     -0.0753079

       Freq:      0.00573813    iters:   3    cpu time up to now:      4.40 secs


       Calculating eigenvalues at frequency iu =     0.03177191

       Read   20  potentials from disk

       Write   20  potentials to disk

       Converged eigenvalues in ascending order

%           -1.9683245     -1.9683245     -1.9683244     -0.5858153     -0.2535199     -0.2535199     -0.2438229     -0.2438229     -0.2438229     -0.1482537
%           -0.1482537     -0.1482537     -0.0777803     -0.0758548     -0.0758547     -0.0758547     -0.0755376     -0.0755376     -0.0755376     -0.0752731

       Freq:      0.03177191    iters:   0    cpu time up to now:      5.95 secs


       Calculating eigenvalues at frequency iu =     0.08504608

       Read   20  potentials from disk

       Write   20  potentials to disk

       Converged eigenvalues in ascending order

%           -1.8317103     -1.8317103     -1.8317102     -0.5722865     -0.2510844     -0.2510844     -0.2418325     -0.2418325     -0.2418325     -0.1466836
%           -0.1466836     -0.1466836     -0.0769635     -0.0756168     -0.0756168     -0.0756168     -0.0753092     -0.0753092     -0.0753092     -0.0750514

       Freq:      0.08504608    iters:   0    cpu time up to now:      7.54 secs


       Calculating eigenvalues at frequency iu =     0.17784210

       Read   20  potentials from disk

       Write   20  potentials to disk

       Converged eigenvalues in ascending order

%           -1.4470856     -1.4470856     -1.4470855     -0.5275223     -0.2423074     -0.2423074     -0.2344951     -0.2344951     -0.2344951     -0.1410092
%           -0.1410092     -0.1410092     -0.0747172     -0.0747172     -0.0747172     -0.0744436     -0.0744436     -0.0744436     -0.0742080     -0.0741048

       Freq:      0.17784210    iters:   0    cpu time up to now:     10.32 secs


       Calculating eigenvalues at frequency iu =     0.33314632

       Read   20  potentials from disk

       Write   20  potentials to disk

       Converged eigenvalues in ascending order

%           -0.8822781     -0.8822781     -0.8822781     -0.4342467     -0.2198287     -0.2198287     -0.2146885     -0.2146885     -0.2146885     -0.1264950
%           -0.1264950     -0.1264950     -0.0720968     -0.0720968     -0.0720968     -0.0719020     -0.0719020     -0.0719020     -0.0717110     -0.0673385

       Freq:      0.33314632    iters:   1    cpu time up to now:     13.05 secs


       Calculating eigenvalues at frequency iu =     0.59894216

       Read   20  potentials from disk

       Write   20  potentials to disk

       Converged eigenvalues in ascending order

%           -0.4255592     -0.4255592     -0.4255592     -0.3080447     -0.1777848     -0.1777848     -0.1751573     -0.1751573     -0.1751573     -0.1003328
%           -0.1003328     -0.1003328     -0.0658480     -0.0658480     -0.0658480     -0.0657443     -0.0657443     -0.0657443     -0.0656089     -0.0563313

       Freq:      0.59894216    iters:   1    cpu time up to now:     15.05 secs


       Calculating eigenvalues at frequency iu =     1.09443482

       Read   20  potentials from disk

       Write   20  potentials to disk

       Converged eigenvalues in ascending order

%           -0.1827662     -0.1716814     -0.1716814     -0.1716814     -0.1193131     -0.1193131     -0.1183386     -0.1183386     -0.1183386     -0.0672598
%           -0.0672598     -0.0672598     -0.0536011     -0.0536011     -0.0536011     -0.0535288     -0.0535288     -0.0535288     -0.0534654     -0.0425359

       Freq:      1.09443482    iters:   1    cpu time up to now:     17.13 secs


       Calculating eigenvalues at frequency iu =     2.19341493

       Read   20  potentials from disk

       Write   20  potentials to disk

       Converged eigenvalues in ascending order

%           -0.0827606     -0.0590359     -0.0590359     -0.0588841     -0.0588841     -0.0588841     -0.0545238     -0.0545238     -0.0545238     -0.0352704
%           -0.0352704     -0.0352704     -0.0344010     -0.0344010     -0.0344010     -0.0343563     -0.0343563     -0.0343563     -0.0343352     -0.0265207

       Freq:      2.19341493    iters:   1    cpu time up to now:     20.01 secs


       Calculating eigenvalues at frequency iu =     5.60440124

       Read   20  potentials from disk

       Write   20  potentials to disk

       Converged eigenvalues in ascending order

%           -0.0214654     -0.0160066     -0.0160066     -0.0160050     -0.0160050     -0.0160050     -0.0126044     -0.0126044     -0.0126044     -0.0125842
%           -0.0125842     -0.0125842     -0.0125644     -0.0111643     -0.0111643     -0.0111643     -0.0103703     -0.0103703     -0.0103703     -0.0099661

       Freq:      5.60440124    iters:   1    cpu time up to now:     22.96 secs


       Calculating eigenvalues at frequency iu =    30.00000000

       Read   20  potentials from disk

       Write   20  potentials to disk

       Converged eigenvalues in ascending order

%           -0.0009921     -0.0007709     -0.0007709     -0.0007703     -0.0007703     -0.0007703     -0.0007336     -0.0007336     -0.0007336     -0.0007316
%           -0.0007316     -0.0007316     -0.0007276     -0.0005993     -0.0005993     -0.0005993     -0.0005937     -0.0004393     -0.0004393     -0.0004354

       Freq:     30.00000000    iters:   1    cpu time up to now:     24.60 secs


     End of RPA Ec calculation

     Freq:      0.00573813  Ec-RPA(iu):       -2.99772847

     Freq:      0.03177191  Ec-RPA(iu):       -2.94970388

     Freq:      0.08504608  Ec-RPA(iu):       -2.67332470

     Freq:      0.17784210  Ec-RPA(iu):       -1.93104237

     Freq:      0.33314632  Ec-RPA(iu):       -0.96745203

     Freq:      0.59894216  Ec-RPA(iu):       -0.35225786

     Freq:      1.09443482  Ec-RPA(iu):       -0.10438238

     Freq:      2.19341493  Ec-RPA(iu):       -0.02212113

     Freq:      5.60440124  Ec-RPA(iu):       -0.00180613

     Freq:     30.00000000  Ec-RPA(iu):       -0.00000485

     RPA Ec with different number of eigenvalues


              nevl =  20          RPA Ec:       -0.161250

              nevl =  10          RPA Ec:       -0.153340


     Final RPA-Ec:      -0.16124985 (no weight)      -0.16124985 (with weight) Ryd

     INITIALIZATION: 
     phq_setup    :      0.01s CPU      0.01s WALL (       1 calls)
     phq_init     :      0.13s CPU      0.13s WALL (       1 calls)

     phq_init     :      0.13s CPU      0.13s WALL (       1 calls)
     init_vloc    :      0.00s CPU      0.00s WALL (       1 calls)
     init_us_1    :      0.01s CPU      0.01s WALL (       1 calls)



     solve_linter :     18.67s CPU     19.14s WALL (     614 calls)

     solve_linter :     18.67s CPU     19.14s WALL (     614 calls)
     ortho        :      1.42s CPU      1.43s WALL (    1263 calls)
     incdrhoscf   :      0.41s CPU      0.41s WALL (     614 calls)


     ch_psi       :     15.27s CPU     15.95s WALL (   26780 calls)

     ch_psi       :     15.27s CPU     15.95s WALL (   26780 calls)
     h_psiq       :     14.04s CPU     14.63s WALL (   26780 calls)
     last         :      1.15s CPU      1.18s WALL (   26780 calls)

     h_psiq       :     14.04s CPU     14.63s WALL (   26780 calls)
     firstfft     :      6.19s CPU      5.91s WALL (   26780 calls)
     secondfft    :      5.46s CPU      5.71s WALL (   26780 calls)
     add_vuspsi   :      0.31s CPU      0.43s WALL (   26780 calls)

     incdrhoscf   :      0.41s CPU      0.41s WALL (     614 calls)


      General routines
     calbec       :      0.78s CPU      0.92s WALL (   53564 calls)
     fft          :      1.31s CPU      1.35s WALL (    4087 calls)
     fftw         :     10.87s CPU     10.82s WALL (   56016 calls)
     davcio       :      0.01s CPU      0.03s WALL (     392 calls)


stop_clock: no clock for       PHONON found !

   This run was terminated on:  11:23:16   7May2016            

=------------------------------------------------------------------------------=
   JOB DONE.
=------------------------------------------------------------------------------=
