
     Program EXX v.6.0 (svn rev. 13079) starts on  4Oct2016 at 20:30:33 

     This program is part of the open-source Quantum ESPRESSO suite
     for quantum simulation of materials; please cite
         "P. Giannozzi et al., J. Phys.:Condens. Matter 21 395502 (2009);
          URL http://www.quantum-espresso.org", 
     in publications or presentations arising from this work. More details at
     http://www.quantum-espresso.org/quote

     Parallel version (MPI), running on     4 processors
     R & G space division:  proc/nbgrp/npool/nimage =       4

     Ultrasoft (Vanderbilt) Pseudopotentials

     Reading data from directory:
     /scratch/colonna/ACFDT/espresso-6.0/tempdir/Be-1.save

   Info: using nr1, nr2, nr3 values from input

   Info: using nr1, nr2, nr3 values from input

     IMPORTANT: XC functional enforced from input :
     Exchange-correlation      = SLA  PZ   NOGX NOGC ( 1  1  0  0 0 0)
     Any further DFT definition will be discarded
     Please, verify this is what you really want

               file Be.EXX-fhi.UPF: wavefunction(s)  3S renormalized
 
     Parallelization info
     --------------------
     sticks:   dense  smooth     PW     G-vecs:    dense   smooth      PW
     Min         627     627    155                23585    23585    2937
     Max         628     628    156                23586    23586    2940
     Sum        2509    2509    621                94341    94341   11753
 

     Some info on exchange and correlation energy

       xc energy (= ex + ec)     =    -0.72564526 Ry
                      !ex        =    -0.58421104 Ry
                      !ec        =    -0.14143422 Ry

       short-range corr. energy  =     0.06166050 Ry

     Only exx_fraction is set to 1.d0
     XC functional still not changed
     Exchange-correlation      = SLA  PZ   NOGX NOGC ( 1  1  0  0 0 0)
     EXX-fraction              =        1.00
EXX: grid of k+q points same as grid of k-points
     + Fock energy             =      -0.68076357 Ry =       -0.68076357 Ry 

 
     EXX          :     0.17s CPU         0.20s WALL

     EXX routines
     exx_grid     :      0.00s CPU      0.00s WALL (       1 calls)
     exxinit      :      0.03s CPU      0.03s WALL (       1 calls)

     Parallel routines
     fft_scatter  :      0.01s CPU      0.01s WALL (      22 calls)
