
     Program PWSCF v.6.0 (svn rev. 13079) starts on  5Oct2016 at  9:19:17 

     This program is part of the open-source Quantum ESPRESSO suite
     for quantum simulation of materials; please cite
         "P. Giannozzi et al., J. Phys.:Condens. Matter 21 395502 (2009);
          URL http://www.quantum-espresso.org", 
     in publications or presentations arising from this work. More details at
     http://www.quantum-espresso.org/quote

     Parallel version (MPI), running on     8 processors
     R & G space division:  proc/nbgrp/npool/nimage =       8
     Waiting for input...
     Reading input from standard input

     Current dimensions of program PWSCF are:
     Max number of different atomic species (ntypx) = 10
     Max number of k-points (npk) =  40000
     Max angular momentum in pseudopotentials (lmaxx) =  3
               file H.pbe-mt_fhi.UPF: wavefunction(s)  2p 4f renormalized

     Subspace diagonalization in iterative solution of the eigenvalue problem:
     a serial algorithm will be used

     Message from routine kpoint_grid:
     ATTENTION: skip check of k-points equivalence
 
     Parallelization info
     --------------------
     sticks:   dense  smooth     PW     G-vecs:    dense   smooth      PW
     Min         313     313     77                11792    11792    1467
     Max         315     315     78                11793    11793    1470
     Sum        2509    2509    621                94341    94341   11753
 


     bravais-lattice index     =            1
     lattice parameter (alat)  =      15.0000  a.u.
     unit-cell volume          =    3375.0000 (a.u.)^3
     number of atoms/cell      =            2
     number of atomic types    =            1
     number of electrons       =         2.00
     number of Kohn-Sham states=            8
     kinetic-energy cutoff     =      35.0000  Ry
     charge density cutoff     =     140.0000  Ry
     convergence threshold     =      5.0E-13
     mixing beta               =       0.7000
     number of iterations used =            8  plain     mixing
     Exchange-correlation      = PBE ( 1  4  3  4 0 0)

     celldm(1)=  15.000000  celldm(2)=   0.000000  celldm(3)=   0.000000
     celldm(4)=   0.000000  celldm(5)=   0.000000  celldm(6)=   0.000000

     crystal axes: (cart. coord. in units of alat)
               a(1) = (   1.000000   0.000000   0.000000 )  
               a(2) = (   0.000000   1.000000   0.000000 )  
               a(3) = (   0.000000   0.000000   1.000000 )  

     reciprocal axes: (cart. coord. in units 2 pi/alat)
               b(1) = (  1.000000  0.000000  0.000000 )  
               b(2) = (  0.000000  1.000000  0.000000 )  
               b(3) = (  0.000000  0.000000  1.000000 )  


     PseudoPot. # 1 for  H read from file:
     ../pseudo/H.pbe-mt_fhi.UPF
     MD5 check sum: a19bd5488733b3d98581df861506e80d
     Pseudo is Norm-conserving, Zval =  1.0
     Generated using FHI98PP, converted with fhi2upf.x v.5.0.2
     Using radial grid of  387 points,  3 beta functions with: 
                l(1) =   0
                l(2) =   1
                l(3) =   3

     atomic species   valence    mass     pseudopotential
        H              1.00     1.00790      H( 1.00)

     No symmetry found



   Cartesian axes

     site n.     atom                  positions (alat units)
         1           H   tau(   1) = (  -0.0276278  -0.0276278  -0.0276278  )
         2           H   tau(   2) = (   0.0276278   0.0276278   0.0276278  )

     number of k points=     1
                       cart. coord. in units 2pi/alat
        k(    1) = (   0.0000000   0.0000000   0.0000000), wk =   2.0000000

     Dense  grid:    94341 G-vectors     FFT dimensions: (  60,  60,  60)

     Estimated max dynamical RAM per process >       8.13Mb

     Estimated total allocated dynamical RAM >      65.04Mb

     Initial potential from superposition of free atoms

     starting charge    1.99998, renormalised to    2.00000

     negative rho (up, down):  5.285E-05 0.000E+00
     Starting wfc are   32 randomized atomic wfcs

     total cpu time spent up to now is        0.1 secs

     per-process dynamical memory:    24.8 Mb

     Self-consistent Calculation

     iteration #  1     ecut=    35.00 Ry     beta=0.70
     Davidson diagonalization with overlap
     ethr =  1.00E-02,  avg # of iterations =  5.0

     negative rho (up, down):  1.345E-05 0.000E+00

     total cpu time spent up to now is        0.2 secs

     total energy              =      -2.32297489 Ry
     Harris-Foulkes estimate   =      -2.37884712 Ry
     estimated scf accuracy    <       0.11080753 Ry

     iteration #  2     ecut=    35.00 Ry     beta=0.70
     Davidson diagonalization with overlap
     ethr =  5.54E-03,  avg # of iterations =  4.0

     negative rho (up, down):  2.084E-06 0.000E+00

     total cpu time spent up to now is        0.3 secs

     total energy              =      -2.33046615 Ry
     Harris-Foulkes estimate   =      -2.33114141 Ry
     estimated scf accuracy    <       0.00124424 Ry

     iteration #  3     ecut=    35.00 Ry     beta=0.70
     Davidson diagonalization with overlap
     ethr =  6.22E-05,  avg # of iterations =  7.0

     negative rho (up, down):  1.283E-08 0.000E+00

     total cpu time spent up to now is        0.3 secs

     total energy              =      -2.33065478 Ry
     Harris-Foulkes estimate   =      -2.33065507 Ry
     estimated scf accuracy    <       0.00001027 Ry

     iteration #  4     ecut=    35.00 Ry     beta=0.70
     Davidson diagonalization with overlap
     ethr =  5.14E-07,  avg # of iterations =  9.0

     total cpu time spent up to now is        0.4 secs

     total energy              =      -2.33065580 Ry
     Harris-Foulkes estimate   =      -2.33065622 Ry
     estimated scf accuracy    <       0.00000068 Ry

     iteration #  5     ecut=    35.00 Ry     beta=0.70
     Davidson diagonalization with overlap
     ethr =  3.41E-08,  avg # of iterations =  1.0

     total cpu time spent up to now is        0.4 secs

     total energy              =      -2.33065585 Ry
     Harris-Foulkes estimate   =      -2.33065585 Ry
     estimated scf accuracy    <          2.9E-09 Ry

     iteration #  6     ecut=    35.00 Ry     beta=0.70
     Davidson diagonalization with overlap
     ethr =  1.45E-10,  avg # of iterations =  2.0

     total cpu time spent up to now is        0.5 secs

     total energy              =      -2.33065585 Ry
     Harris-Foulkes estimate   =      -2.33065585 Ry
     estimated scf accuracy    <          4.7E-11 Ry

     iteration #  7     ecut=    35.00 Ry     beta=0.70
     Davidson diagonalization with overlap
     ethr =  2.33E-12,  avg # of iterations =  1.0

     total cpu time spent up to now is        0.5 secs

     total energy              =      -2.33065585 Ry
     Harris-Foulkes estimate   =      -2.33065585 Ry
     estimated scf accuracy    <          5.7E-12 Ry

     iteration #  8     ecut=    35.00 Ry     beta=0.70
     Davidson diagonalization with overlap
     ethr =  2.87E-13,  avg # of iterations =  2.0

     total cpu time spent up to now is        0.6 secs

     End of self-consistent calculation

          k = 0.0000 0.0000 0.0000 ( 11753 PWs)   bands (ev):

   -10.2296  -0.2578   0.5750   1.4279   1.4279   2.0254   2.0254   2.4207

     highest occupied, lowest unoccupied level (ev):   -10.2296   -0.2578

!    total energy              =      -2.33065585 Ry
     Harris-Foulkes estimate   =      -2.33065585 Ry
     estimated scf accuracy    <          1.3E-13 Ry

     The total energy is the sum of the following terms:

     one-electron contribution =      -3.45922729 Ry
     hartree contribution      =       1.85392906 Ry
     xc contribution           =      -1.36444249 Ry
     ewald contribution        =       0.63908487 Ry

     convergence has been achieved in   8 iterations

     Writing output data file H2.save
 
     init_run     :      0.09s CPU      0.10s WALL (       1 calls)
     electrons    :      0.45s CPU      0.46s WALL (       1 calls)

     Called by init_run:
     wfcinit      :      0.04s CPU      0.04s WALL (       1 calls)
     potinit      :      0.02s CPU      0.02s WALL (       1 calls)

     Called by electrons:
     c_bands      :      0.25s CPU      0.26s WALL (       8 calls)
     sum_band     :      0.06s CPU      0.06s WALL (       8 calls)
     v_of_rho     :      0.11s CPU      0.12s WALL (       9 calls)
     mix_rho      :      0.02s CPU      0.02s WALL (       8 calls)

     Called by c_bands:
     init_us_2    :      0.01s CPU      0.01s WALL (      17 calls)
     cegterg      :      0.24s CPU      0.24s WALL (       8 calls)

     Called by sum_band:

     Called by *egterg:
     h_psi        :      0.24s CPU      0.25s WALL (      40 calls)
     g_psi        :      0.00s CPU      0.00s WALL (      31 calls)
     cdiaghg      :      0.00s CPU      0.01s WALL (      39 calls)

     Called by h_psi:
     h_psi:pot    :      0.24s CPU      0.25s WALL (      40 calls)
     h_psi:calbec :      0.00s CPU      0.01s WALL (      40 calls)
     vloc_psi     :      0.24s CPU      0.24s WALL (      40 calls)
     add_vuspsi   :      0.00s CPU      0.00s WALL (      40 calls)

     General routines
     calbec       :      0.00s CPU      0.01s WALL (      40 calls)
     fft          :      0.07s CPU      0.08s WALL (      98 calls)
     fftw         :      0.27s CPU      0.27s WALL (     506 calls)
 
     Parallel routines
     fft_scatter  :      0.15s CPU      0.14s WALL (     604 calls)
 
     PWSCF        :     0.61s CPU         0.63s WALL

 
   This run was terminated on:   9:19:17   5Oct2016            

=------------------------------------------------------------------------------=
   JOB DONE.
=------------------------------------------------------------------------------=
