
     Program PWSCF v.5.4.0 (svn rev. 12392M) starts on  7May2016 at 11:16:11 

     This program is part of the open-source Quantum ESPRESSO suite
     for quantum simulation of materials; please cite
         "P. Giannozzi et al., J. Phys.:Condens. Matter 21 395502 (2009);
          URL http://www.quantum-espresso.org", 
     in publications or presentations arising from this work. More details at
     http://www.quantum-espresso.org/quote

     Parallel version (MPI), running on     2 processors
     R & G space division:  proc/nbgrp/npool/nimage =       2
     Waiting for input...
     Reading input from standard input
     Message from routine read_cards :
     DEPRECATED: no units specified in ATOMIC_POSITIONS card
     Message from routine read_cards :
     ATOMIC_POSITIONS: units set to alat

     Current dimensions of program PWSCF are:
     Max number of different atomic species (ntypx) = 10
     Max number of k-points (npk) =  40000
     Max angular momentum in pseudopotentials (lmaxx) =  3
               file H.pbe-vbc.UPF: wavefunction(s)  1S renormalized

     Subspace diagonalization in iterative solution of the eigenvalue problem:
     a serial algorithm will be used

     Message from routine kpoint_grid:
     ATTENTION: skip check of k-points equivalence

     Parallelization info
     --------------------
     sticks:   dense  smooth     PW     G-vecs:    dense   smooth      PW
     Min         358     358     88                 7180     7180     894
     Max         359     359     89                 7183     7183     897
     Sum         717     717    177                14363    14363    1791



     bravais-lattice index     =            1
     lattice parameter (alat)  =      15.0000  a.u.
     unit-cell volume          =    3375.0000 (a.u.)^3
     number of atoms/cell      =            2
     number of atomic types    =            1
     number of electrons       =         2.00
     number of Kohn-Sham states=            8
     kinetic-energy cutoff     =      10.0000  Ry
     charge density cutoff     =      40.0000  Ry
     convergence threshold     =      5.0E-13
     mixing beta               =       0.7000
     number of iterations used =            8  plain     mixing
     Exchange-correlation      =  SLA  PW   PBE  PBE ( 1  4  3  4 0 0)

     celldm(1)=  15.000000  celldm(2)=   0.000000  celldm(3)=   0.000000
     celldm(4)=   0.000000  celldm(5)=   0.000000  celldm(6)=   0.000000

     crystal axes: (cart. coord. in units of alat)
               a(1) = (   1.000000   0.000000   0.000000 )  
               a(2) = (   0.000000   1.000000   0.000000 )  
               a(3) = (   0.000000   0.000000   1.000000 )  

     reciprocal axes: (cart. coord. in units 2 pi/alat)
               b(1) = (  1.000000  0.000000  0.000000 )  
               b(2) = (  0.000000  1.000000  0.000000 )  
               b(3) = (  0.000000  0.000000  1.000000 )  


     PseudoPot. # 1 for H  read from file:
     ../pseudo/H.pbe-vbc.UPF
     MD5 check sum: 9cf9aca649a2d0af84bda0649e452bb4
     Pseudo is Norm-conserving, Zval =  1.0
     Generated by new atomic code, or converted to UPF format
     Using radial grid of  131 points,  0 beta functions with: 

     atomic species   valence    mass     pseudopotential
        H              1.00     1.00790     H ( 1.00)

     No symmetry found



   Cartesian axes

     site n.     atom                  positions (alat units)
         1           H   tau(   1) = (   0.0000000   0.0000000   0.0000000  )
         2           H   tau(   2) = (   3.4642000   3.4642000   3.4642000  )

     number of k points=     1
                       cart. coord. in units 2pi/alat
        k(    1) = (   0.0000000   0.0000000   0.0000000), wk =   2.0000000

     Dense  grid:    14363 G-vectors     FFT dimensions: (  32,  32,  32)

     Largest allocated arrays     est. size (Mb)     dimensions
        Kohn-Sham Wavefunctions         0.11 Mb     (     897,    8)
        NL pseudopotentials             0.00 Mb     (     897,    0)
        Each V/rho on FFT grid          0.25 Mb     (   16384)
        Each G-vector array             0.05 Mb     (    7183)
        G-vector shells                 0.00 Mb     (     192)
     Largest temporary arrays     est. size (Mb)     dimensions
        Auxiliary wavefunctions         0.44 Mb     (     897,   32)
        Each subspace H/S matrix        0.02 Mb     (      32,   32)
        Each <psi_i|beta_j> matrix      0.00 Mb     (       0,    8)
        Arrays for rho mixing           2.00 Mb     (   16384,    8)

     Initial potential from superposition of free atoms
     Check: negative starting charge=   -0.048102

     starting charge    1.99995, renormalised to    2.00000

     negative rho (up, down):  4.810E-02 0.000E+00
     Starting wfc are    2 randomized atomic wfcs +    6 random wfc

     total cpu time spent up to now is        0.0 secs

     per-process dynamical memory:     3.8 Mb

     Self-consistent Calculation

     iteration #  1     ecut=    10.00 Ry     beta=0.70
     Davidson diagonalization with overlap
     ethr =  1.00E-02,  avg # of iterations =  9.0

     Threshold (ethr) on eigenvalues was too large:
     Diagonalizing with lowered threshold

     Davidson diagonalization with overlap
     ethr =  2.56E-04,  avg # of iterations =  3.0

     negative rho (up, down):  5.537E-03 0.000E+00

     total cpu time spent up to now is        0.1 secs

     total energy              =      -1.74049793 Ry
     Harris-Foulkes estimate   =      -1.73784395 Ry
     estimated scf accuracy    <       0.00555351 Ry

     iteration #  2     ecut=    10.00 Ry     beta=0.70
     Davidson diagonalization with overlap
     ethr =  2.78E-04,  avg # of iterations =  1.0

     negative rho (up, down):  5.379E-03 0.000E+00

     total cpu time spent up to now is        0.1 secs

     total energy              =      -1.73428332 Ry
     Harris-Foulkes estimate   =      -1.75825420 Ry
     estimated scf accuracy    <       0.82313602 Ry

     iteration #  3     ecut=    10.00 Ry     beta=0.70
     Davidson diagonalization with overlap
     ethr =  2.78E-04,  avg # of iterations =  1.0

     negative rho (up, down):  5.282E-04 0.000E+00

     total cpu time spent up to now is        0.2 secs

     total energy              =      -1.73579754 Ry
     Harris-Foulkes estimate   =      -1.74432918 Ry
     estimated scf accuracy    <       0.59629015 Ry

     iteration #  4     ecut=    10.00 Ry     beta=0.70
     Davidson diagonalization with overlap
     ethr =  2.78E-04,  avg # of iterations =  1.0

     total cpu time spent up to now is        0.2 secs

     total energy              =      -1.73351894 Ry
     Harris-Foulkes estimate   =      -1.74646247 Ry
     estimated scf accuracy    <       0.67706428 Ry

     iteration #  5     ecut=    10.00 Ry     beta=0.70
     Davidson diagonalization with overlap
     ethr =  2.78E-04,  avg # of iterations =  1.0

     total cpu time spent up to now is        0.2 secs

     total energy              =      -1.74292077 Ry
     Harris-Foulkes estimate   =      -1.74823467 Ry
     estimated scf accuracy    <       0.73467614 Ry

     iteration #  6     ecut=    10.00 Ry     beta=0.70
     Davidson diagonalization with overlap
     ethr =  2.78E-04,  avg # of iterations =  1.0

     total cpu time spent up to now is        0.2 secs

     total energy              =      -1.74187675 Ry
     Harris-Foulkes estimate   =      -1.74341834 Ry
     estimated scf accuracy    <       0.35169003 Ry

     iteration #  7     ecut=    10.00 Ry     beta=0.70
     Davidson diagonalization with overlap
     ethr =  2.78E-04,  avg # of iterations =  1.0

     total cpu time spent up to now is        0.3 secs

     total energy              =      -1.74250177 Ry
     Harris-Foulkes estimate   =      -1.74249194 Ry
     estimated scf accuracy    <       0.00183970 Ry

     iteration #  8     ecut=    10.00 Ry     beta=0.70
     Davidson diagonalization with overlap
     ethr =  9.20E-05,  avg # of iterations =  1.0

     total cpu time spent up to now is        0.3 secs

     total energy              =      -1.74278396 Ry
     Harris-Foulkes estimate   =      -1.74250882 Ry
     estimated scf accuracy    <       0.01114047 Ry

     iteration #  9     ecut=    10.00 Ry     beta=0.70
     Davidson diagonalization with overlap
     ethr =  9.20E-05,  avg # of iterations =  1.0

     total cpu time spent up to now is        0.3 secs

     total energy              =      -1.74025385 Ry
     Harris-Foulkes estimate   =      -1.74353646 Ry
     estimated scf accuracy    <       0.37879399 Ry

     iteration # 10     ecut=    10.00 Ry     beta=0.70
     Davidson diagonalization with overlap
     ethr =  9.20E-05,  avg # of iterations =  1.0

     total cpu time spent up to now is        0.3 secs

     total energy              =      -1.74150531 Ry
     Harris-Foulkes estimate   =      -1.74322451 Ry
     estimated scf accuracy    <       0.29853995 Ry

     iteration # 11     ecut=    10.00 Ry     beta=0.70
     Davidson diagonalization with overlap
     ethr =  9.20E-05,  avg # of iterations =  1.0

     total cpu time spent up to now is        0.3 secs

     total energy              =      -1.74228119 Ry
     Harris-Foulkes estimate   =      -1.74256990 Ry
     estimated scf accuracy    <       0.04255361 Ry

     iteration # 12     ecut=    10.00 Ry     beta=0.70
     Davidson diagonalization with overlap
     ethr =  9.20E-05,  avg # of iterations =  1.0

     total cpu time spent up to now is        0.4 secs

     total energy              =      -1.74237855 Ry
     Harris-Foulkes estimate   =      -1.74255368 Ry
     estimated scf accuracy    <       0.03378315 Ry

     iteration # 13     ecut=    10.00 Ry     beta=0.70
     Davidson diagonalization with overlap
     ethr =  9.20E-05,  avg # of iterations =  1.0

     total cpu time spent up to now is        0.4 secs

     total energy              =      -1.74251411 Ry
     Harris-Foulkes estimate   =      -1.74250530 Ry
     estimated scf accuracy    <       0.00707324 Ry

     iteration # 14     ecut=    10.00 Ry     beta=0.70
     Davidson diagonalization with overlap
     ethr =  9.20E-05,  avg # of iterations =  1.0

     total cpu time spent up to now is        0.4 secs

     total energy              =      -1.74246930 Ry
     Harris-Foulkes estimate   =      -1.74251552 Ry
     estimated scf accuracy    <       0.01256217 Ry

     iteration # 15     ecut=    10.00 Ry     beta=0.70
     Davidson diagonalization with overlap
     ethr =  9.20E-05,  avg # of iterations =  1.0

     total cpu time spent up to now is        0.4 secs

     total energy              =      -1.74249282 Ry
     Harris-Foulkes estimate   =      -1.74249312 Ry
     estimated scf accuracy    <       0.00001843 Ry

     iteration # 16     ecut=    10.00 Ry     beta=0.70
     Davidson diagonalization with overlap
     ethr =  9.22E-07,  avg # of iterations =  1.0

     total cpu time spent up to now is        0.5 secs

     total energy              =      -1.74249298 Ry
     Harris-Foulkes estimate   =      -1.74249382 Ry
     estimated scf accuracy    <       0.00038542 Ry

     iteration # 17     ecut=    10.00 Ry     beta=0.70
     Davidson diagonalization with overlap
     ethr =  9.22E-07,  avg # of iterations =  1.0

     total cpu time spent up to now is        0.5 secs

     total energy              =      -1.74249325 Ry
     Harris-Foulkes estimate   =      -1.74249327 Ry
     estimated scf accuracy    <       0.00004596 Ry

     iteration # 18     ecut=    10.00 Ry     beta=0.70
     Davidson diagonalization with overlap
     ethr =  9.22E-07,  avg # of iterations =  1.0

     total cpu time spent up to now is        0.5 secs

     total energy              =      -1.74249321 Ry
     Harris-Foulkes estimate   =      -1.74249325 Ry
     estimated scf accuracy    <       0.00003619 Ry

     iteration # 19     ecut=    10.00 Ry     beta=0.70
     Davidson diagonalization with overlap
     ethr =  9.22E-07,  avg # of iterations =  1.0

     total cpu time spent up to now is        0.5 secs

     total energy              =      -1.74249327 Ry
     Harris-Foulkes estimate   =      -1.74249327 Ry
     estimated scf accuracy    <       0.00000004 Ry

     iteration # 20     ecut=    10.00 Ry     beta=0.70
     Davidson diagonalization with overlap
     ethr =  1.86E-09,  avg # of iterations =  1.0

     total cpu time spent up to now is        0.6 secs

     total energy              =      -1.74249322 Ry
     Harris-Foulkes estimate   =      -1.74249327 Ry
     estimated scf accuracy    <          2.4E-09 Ry

     iteration # 21     ecut=    10.00 Ry     beta=0.70
     Davidson diagonalization with overlap
     ethr =  1.20E-10,  avg # of iterations =  1.0

     total cpu time spent up to now is        0.6 secs

     total energy              =      -1.74249322 Ry
     Harris-Foulkes estimate   =      -1.74249322 Ry
     estimated scf accuracy    <          2.1E-10 Ry

     iteration # 22     ecut=    10.00 Ry     beta=0.70
     Davidson diagonalization with overlap
     ethr =  1.04E-11,  avg # of iterations =  1.0

     total cpu time spent up to now is        0.6 secs

     total energy              =      -1.74249322 Ry
     Harris-Foulkes estimate   =      -1.74249322 Ry
     estimated scf accuracy    <          3.6E-10 Ry

     iteration # 23     ecut=    10.00 Ry     beta=0.70
     Davidson diagonalization with overlap
     ethr =  1.04E-11,  avg # of iterations =  1.0

     total cpu time spent up to now is        0.7 secs

     total energy              =      -1.74249322 Ry
     Harris-Foulkes estimate   =      -1.74249322 Ry
     estimated scf accuracy    <          2.7E-10 Ry

     iteration # 24     ecut=    10.00 Ry     beta=0.70
     Davidson diagonalization with overlap
     ethr =  1.04E-11,  avg # of iterations =  1.0

     total cpu time spent up to now is        0.7 secs

     End of self-consistent calculation

          k = 0.0000 0.0000 0.0000 (  1791 PWs)   bands (ev):

    -6.1658  -6.1268  -0.4346   0.8661   0.8661   0.8668   1.4988   1.4989

     highest occupied, lowest unoccupied level (ev):    -6.1658   -6.1268

!    total energy              =      -1.74249322 Ry
     Harris-Foulkes estimate   =      -1.74249322 Ry
     estimated scf accuracy    <          1.8E-14 Ry

     The total energy is the sum of the following terms:

     one-electron contribution =      -0.93741564 Ry
     hartree contribution      =       0.61224545 Ry
     xc contribution           =      -0.93317384 Ry
     ewald contribution        =      -0.48414920 Ry

     convergence has been achieved in  24 iterations

     Writing output data file H2.save

     init_run     :      0.04s CPU      0.03s WALL (       1 calls)
     electrons    :      0.63s CPU      0.64s WALL (       1 calls)

     Called by init_run:
     wfcinit      :      0.01s CPU      0.01s WALL (       1 calls)
     potinit      :      0.02s CPU      0.02s WALL (       1 calls)

     Called by electrons:
     c_bands      :      0.23s CPU      0.23s WALL (      25 calls)
     sum_band     :      0.05s CPU      0.05s WALL (      25 calls)
     v_of_rho     :      0.27s CPU      0.29s WALL (      25 calls)
     mix_rho      :      0.07s CPU      0.07s WALL (      25 calls)

     Called by c_bands:
     cegterg      :      0.22s CPU      0.23s WALL (      25 calls)

     Called by sum_band:

     Called by *egterg:
     h_psi        :      0.15s CPU      0.16s WALL (      61 calls)
     g_psi        :      0.00s CPU      0.00s WALL (      35 calls)
     cdiaghg      :      0.01s CPU      0.01s WALL (      59 calls)

     Called by h_psi:

     General routines
     fft          :      0.05s CPU      0.08s WALL (     276 calls)
     fftw         :      0.14s CPU      0.15s WALL (    1086 calls)

     Parallel routines
     fft_scatter  :      0.07s CPU      0.09s WALL (    1362 calls)

     PWSCF        :     0.70s CPU         0.72s WALL


   This run was terminated on:  11:16:12   7May2016            

=------------------------------------------------------------------------------=
   JOB DONE.
=------------------------------------------------------------------------------=
