
     Program PWSCF v.6.0 (svn rev. 13079) starts on  4Oct2016 at 21: 2:22 

     This program is part of the open-source Quantum ESPRESSO suite
     for quantum simulation of materials; please cite
         "P. Giannozzi et al., J. Phys.:Condens. Matter 21 395502 (2009);
          URL http://www.quantum-espresso.org", 
     in publications or presentations arising from this work. More details at
     http://www.quantum-espresso.org/quote

     Parallel version (MPI), running on     1 processors
     Waiting for input...
     Reading input from standard input
     Message from routine read_cards :
     DEPRECATED: no units specified in ATOMIC_POSITIONS card
     Message from routine read_cards :
     ATOMIC_POSITIONS: units set to alat

     Current dimensions of program PWSCF are:
     Max number of different atomic species (ntypx) = 10
     Max number of k-points (npk) =  40000
     Max angular momentum in pseudopotentials (lmaxx) =  3

     IMPORTANT: XC functional enforced from input :
     Exchange-correlation      = HF ( 5  0  0  0 0 0)
     EXX-fraction              =        1.00
     Any further DFT definition will be discarded
     Please, verify this is what you really want

               file Be.EXX-fhi.UPF: wavefunction(s)  3S renormalized

     Subspace diagonalization in iterative solution of the eigenvalue problem:
     a serial algorithm will be used

     Message from routine kpoint_grid:
     ATTENTION: skip check of k-points equivalence
EXX: grid of k+q points same as grid of k-points
 
     G-vector sticks info
     --------------------
     sticks:   dense  smooth     PW     G-vecs:    dense   smooth      PW
     Sum        2509    2509    621                94341    94341   11753
 


     bravais-lattice index     =            1
     lattice parameter (alat)  =      15.0000  a.u.
     unit-cell volume          =    3375.0000 (a.u.)^3
     number of atoms/cell      =            1
     number of atomic types    =            1
     number of electrons       =         2.00
     number of Kohn-Sham states=            8
     kinetic-energy cutoff     =      35.0000  Ry
     charge density cutoff     =     140.0000  Ry
     cutoff for Fock operator  =     140.0000  Ry
     convergence threshold     =      5.0E-13
     mixing beta               =       0.7000
     number of iterations used =            8  plain     mixing
     Exchange-correlation      = HF ( 5  0  0  0 0 0)
     EXX-fraction              =        1.00

     celldm(1)=  15.000000  celldm(2)=   0.000000  celldm(3)=   0.000000
     celldm(4)=   0.000000  celldm(5)=   0.000000  celldm(6)=   0.000000

     crystal axes: (cart. coord. in units of alat)
               a(1) = (   1.000000   0.000000   0.000000 )  
               a(2) = (   0.000000   1.000000   0.000000 )  
               a(3) = (   0.000000   0.000000   1.000000 )  

     reciprocal axes: (cart. coord. in units 2 pi/alat)
               b(1) = (  1.000000  0.000000  0.000000 )  
               b(2) = (  0.000000  1.000000  0.000000 )  
               b(3) = (  0.000000  0.000000  1.000000 )  


     PseudoPot. # 1 for Be read from file:
     ../pseudo/Be.EXX-fhi.UPF
     MD5 check sum: 17e503e2df6aa395e6988bd959d3fa42
     Pseudo is Norm-conserving, Zval =  2.0
     Generated by new atomic code, or converted to UPF format
     Using radial grid of  445 points,  2 beta functions with: 
                l(1) =   0
                l(2) =   1

     atomic species   valence    mass     pseudopotential
        Be             2.00     9.01218     Be( 1.00)

     No symmetry found



   Cartesian axes

     site n.     atom                  positions (alat units)
         1           Be  tau(   1) = (   0.0000000   0.0000000   0.0000000  )

     number of k points=     1
                       cart. coord. in units 2pi/alat
        k(    1) = (   0.0000000   0.0000000   0.0000000), wk =   2.0000000

     Dense  grid:    94341 G-vectors     FFT dimensions: (  60,  60,  60)

     Estimated max dynamical RAM per process >     244.97Mb

     Initial potential from superposition of free atoms

     starting charge    1.99987, renormalised to    2.00000

     negative rho (up, down):  1.608E-06 0.000E+00
     Starting wfc are    9 randomized atomic wfcs

     total cpu time spent up to now is        0.1 secs

     per-process dynamical memory:    61.4 Mb

     Self-consistent Calculation

     iteration #  1     ecut=    35.00 Ry     beta=0.70
     Davidson diagonalization with overlap
     ethr =  1.00E-02,  avg # of iterations = 10.0

     Threshold (ethr) on eigenvalues was too large:
     Diagonalizing with lowered threshold

     Davidson diagonalization with overlap
     ethr =  6.88E-05,  avg # of iterations =  9.0

     total cpu time spent up to now is        0.7 secs

     total energy              =      -1.82916580 Ry
     Harris-Foulkes estimate   =      -1.82982219 Ry
     estimated scf accuracy    <       0.00143931 Ry

     iteration #  2     ecut=    35.00 Ry     beta=0.70
     Davidson diagonalization with overlap
     ethr =  7.20E-05,  avg # of iterations =  1.0

     total cpu time spent up to now is        0.8 secs

     total energy              =      -1.82929017 Ry
     Harris-Foulkes estimate   =      -1.82929078 Ry
     estimated scf accuracy    <       0.00000758 Ry

     iteration #  3     ecut=    35.00 Ry     beta=0.70
     Davidson diagonalization with overlap
     ethr =  3.79E-07,  avg # of iterations =  4.0

     total cpu time spent up to now is        1.0 secs

     total energy              =      -1.82929661 Ry
     Harris-Foulkes estimate   =      -1.82929635 Ry
     estimated scf accuracy    <       0.00000038 Ry

     iteration #  4     ecut=    35.00 Ry     beta=0.70
     Davidson diagonalization with overlap
     ethr =  1.90E-08,  avg # of iterations =  1.0

     total cpu time spent up to now is        1.2 secs

     total energy              =      -1.82929668 Ry
     Harris-Foulkes estimate   =      -1.82929664 Ry
     estimated scf accuracy    <       0.00000002 Ry

     iteration #  5     ecut=    35.00 Ry     beta=0.70
     Davidson diagonalization with overlap
     ethr =  1.03E-09,  avg # of iterations =  1.0

     total cpu time spent up to now is        1.3 secs

     total energy              =      -1.82929668 Ry
     Harris-Foulkes estimate   =      -1.82929668 Ry
     estimated scf accuracy    <          1.8E-09 Ry

     iteration #  6     ecut=    35.00 Ry     beta=0.70
     Davidson diagonalization with overlap
     ethr =  8.91E-11,  avg # of iterations =  1.0

     total cpu time spent up to now is        1.5 secs

     total energy              =      -1.82929668 Ry
     Harris-Foulkes estimate   =      -1.82929668 Ry
     estimated scf accuracy    <          1.4E-11 Ry

     iteration #  7     ecut=    35.00 Ry     beta=0.70
     Davidson diagonalization with overlap
     ethr =  7.06E-13,  avg # of iterations =  2.0

     total cpu time spent up to now is        1.7 secs

     total energy              =      -1.82929668 Ry
     Harris-Foulkes estimate   =      -1.82929668 Ry
     estimated scf accuracy    <          7.6E-13 Ry

     iteration #  8     ecut=    35.00 Ry     beta=0.70
     Davidson diagonalization with overlap
     ethr =  1.00E-13,  avg # of iterations =  1.0

     total cpu time spent up to now is        1.8 secs

     End of self-consistent calculation

          k = 0.0000 0.0000 0.0000 ( 11753 PWs)   bands (ev):

    -4.3870  -0.8237  -0.8237  -0.8237   0.0258   1.6784   1.6784   2.5497

     highest occupied, lowest unoccupied level (ev):    -4.3870   -0.8237

!    total energy              =      -1.82929668 Ry
     Harris-Foulkes estimate   =      -1.82929668 Ry
     estimated scf accuracy    <          4.9E-14 Ry

     convergence has been achieved in   8 iterations

     EXX: now go back to refine exchange calculation

     total cpu time spent up to now is        1.9 secs

     per-process dynamical memory:    82.3 Mb

     Self-consistent Calculation

     iteration #  1     ecut=    35.00 Ry     beta=0.70
     Davidson diagonalization with overlap
     ethr =  1.00E-13,  avg # of iterations =  7.0

     total cpu time spent up to now is        3.2 secs

     total energy              =      -1.92476328 Ry
     Harris-Foulkes estimate   =      -2.59041078 Ry
     estimated scf accuracy    <       0.00023102 Ry

     iteration #  2     ecut=    35.00 Ry     beta=0.70
     Davidson diagonalization with overlap
     ethr =  1.16E-05,  avg # of iterations =  2.0

     total cpu time spent up to now is        3.7 secs

     total energy              =      -1.92480196 Ry
     Harris-Foulkes estimate   =      -2.59024006 Ry
     estimated scf accuracy    <       0.00000088 Ry

     iteration #  3     ecut=    35.00 Ry     beta=0.70
     Davidson diagonalization with overlap
     ethr =  4.42E-08,  avg # of iterations =  3.0

     total cpu time spent up to now is        4.2 secs

     total energy              =      -1.92480212 Ry
     Harris-Foulkes estimate   =      -2.59023941 Ry
     estimated scf accuracy    <       0.00000001 Ry

     iteration #  4     ecut=    35.00 Ry     beta=0.70
     Davidson diagonalization with overlap
     ethr =  6.17E-10,  avg # of iterations =  1.0

     total cpu time spent up to now is        4.6 secs

     total energy              =      -1.92480212 Ry
     Harris-Foulkes estimate   =      -2.59023939 Ry
     estimated scf accuracy    <          2.3E-11 Ry

     iteration #  5     ecut=    35.00 Ry     beta=0.70
     Davidson diagonalization with overlap
     ethr =  1.14E-12,  avg # of iterations =  2.0

     total cpu time spent up to now is        5.0 secs

     total energy              =      -1.92480212 Ry
     Harris-Foulkes estimate   =      -2.59023939 Ry
     estimated scf accuracy    <          1.9E-12 Ry

     iteration #  6     ecut=    35.00 Ry     beta=0.70
     Davidson diagonalization with overlap
     ethr =  1.00E-13,  avg # of iterations =  2.0

     total cpu time spent up to now is        5.4 secs

     End of self-consistent calculation

          k = 0.0000 0.0000 0.0000 ( 11753 PWs)   bands (ev):

    -8.1699   0.7332   1.5782   1.5782   1.5782   2.5913   2.5913   3.7077

     highest occupied, lowest unoccupied level (ev):    -8.1699    0.7332

!    total energy              =      -1.92480212 Ry
     Harris-Foulkes estimate   =      -2.59023939 Ry
     estimated scf accuracy    <          1.3E-13 Ry

     convergence has been achieved in   6 iterations

     total energy              =      -1.92504766 Ry
     Harris-Foulkes estimate   =      -1.92504766 Ry
     est. exchange err (dexx)  =       0.00024554 Ry
     - averaged Fock potential =       1.33849386 Ry
     + Fock energy             =      -0.67330213 Ry

     EXX: now go back to refine exchange calculation

     total cpu time spent up to now is        5.5 secs

     per-process dynamical memory:    82.3 Mb

     Self-consistent Calculation

     iteration #  1     ecut=    35.00 Ry     beta=0.70
     Davidson diagonalization with overlap
     ethr =  1.00E-13,  avg # of iterations =  6.0

     total cpu time spent up to now is        6.0 secs

     total energy              =      -1.92514775 Ry
     Harris-Foulkes estimate   =      -2.59849210 Ry
     estimated scf accuracy    <       0.00004640 Ry

     iteration #  2     ecut=    35.00 Ry     beta=0.70
     Davidson diagonalization with overlap
     ethr =  2.32E-06,  avg # of iterations =  2.0

     total cpu time spent up to now is        6.5 secs

     total energy              =      -1.92515555 Ry
     Harris-Foulkes estimate   =      -2.59845782 Ry
     estimated scf accuracy    <       0.00000015 Ry

     iteration #  3     ecut=    35.00 Ry     beta=0.70
     Davidson diagonalization with overlap
     ethr =  7.70E-09,  avg # of iterations =  2.0

     total cpu time spent up to now is        6.9 secs

     total energy              =      -1.92515558 Ry
     Harris-Foulkes estimate   =      -2.59845771 Ry
     estimated scf accuracy    <          9.2E-10 Ry

     iteration #  4     ecut=    35.00 Ry     beta=0.70
     Davidson diagonalization with overlap
     ethr =  4.59E-11,  avg # of iterations =  1.0

     total cpu time spent up to now is        7.3 secs

     total energy              =      -1.92515558 Ry
     Harris-Foulkes estimate   =      -2.59845771 Ry
     estimated scf accuracy    <          1.5E-12 Ry

     iteration #  5     ecut=    35.00 Ry     beta=0.70
     Davidson diagonalization with overlap
     ethr =  1.00E-13,  avg # of iterations =  2.0

     total cpu time spent up to now is        7.7 secs

     End of self-consistent calculation

          k = 0.0000 0.0000 0.0000 ( 11753 PWs)   bands (ev):

    -8.1786   0.7312   1.6005   1.6005   1.6005   2.5937   2.5937   3.7127

     highest occupied, lowest unoccupied level (ev):    -8.1786    0.7312

!    total energy              =      -1.92515558 Ry
     Harris-Foulkes estimate   =      -2.59845771 Ry
     estimated scf accuracy    <          1.1E-14 Ry

     convergence has been achieved in   5 iterations

     total energy              =      -1.92520513 Ry
     Harris-Foulkes estimate   =      -1.92520513 Ry
     est. exchange err (dexx)  =       0.00004955 Ry
     - averaged Fock potential =       1.35026953 Ry
     + Fock energy             =      -0.67701695 Ry

     EXX: now go back to refine exchange calculation

     total cpu time spent up to now is        7.7 secs

     per-process dynamical memory:    82.3 Mb

     Self-consistent Calculation

     iteration #  1     ecut=    35.00 Ry     beta=0.70
     Davidson diagonalization with overlap
     ethr =  1.00E-13,  avg # of iterations =  5.0

     total cpu time spent up to now is        8.2 secs

     total energy              =      -1.92522668 Ry
     Harris-Foulkes estimate   =      -2.60225254 Ry
     estimated scf accuracy    <       0.00000979 Ry

     iteration #  2     ecut=    35.00 Ry     beta=0.70
     Davidson diagonalization with overlap
     ethr =  4.90E-07,  avg # of iterations =  2.0

     total cpu time spent up to now is        8.6 secs

     total energy              =      -1.92522831 Ry
     Harris-Foulkes estimate   =      -2.60224530 Ry
     estimated scf accuracy    <       0.00000004 Ry

     iteration #  3     ecut=    35.00 Ry     beta=0.70
     Davidson diagonalization with overlap
     ethr =  1.80E-09,  avg # of iterations =  2.0

     total cpu time spent up to now is        9.1 secs

     total energy              =      -1.92522832 Ry
     Harris-Foulkes estimate   =      -2.60224527 Ry
     estimated scf accuracy    <          2.8E-10 Ry

     iteration #  4     ecut=    35.00 Ry     beta=0.70
     Davidson diagonalization with overlap
     ethr =  1.42E-11,  avg # of iterations =  1.0

     total cpu time spent up to now is        9.6 secs

     total energy              =      -1.92522832 Ry
     Harris-Foulkes estimate   =      -2.60224527 Ry
     estimated scf accuracy    <          5.7E-13 Ry

     iteration #  5     ecut=    35.00 Ry     beta=0.70
     Davidson diagonalization with overlap
     ethr =  1.00E-13,  avg # of iterations =  2.0

     total cpu time spent up to now is       10.2 secs

     End of self-consistent calculation

          k = 0.0000 0.0000 0.0000 ( 11753 PWs)   bands (ev):

    -8.1821   0.7301   1.6110   1.6110   1.6110   2.5947   2.5947   3.7148

     highest occupied, lowest unoccupied level (ev):    -8.1821    0.7301

!    total energy              =      -1.92522832 Ry
     Harris-Foulkes estimate   =      -2.60224527 Ry
     estimated scf accuracy    <          1.1E-14 Ry

     convergence has been achieved in   5 iterations

     total energy              =      -1.92523927 Ry
     Harris-Foulkes estimate   =      -1.92523927 Ry
     est. exchange err (dexx)  =       0.00001095 Ry
     - averaged Fock potential =       1.35577409 Ry
     + Fock energy             =      -0.67876809 Ry

     EXX: now go back to refine exchange calculation

     total cpu time spent up to now is       10.3 secs

     per-process dynamical memory:    82.3 Mb

     Self-consistent Calculation

     iteration #  1     ecut=    35.00 Ry     beta=0.70
     Davidson diagonalization with overlap
     ethr =  1.00E-13,  avg # of iterations =  5.0

     total cpu time spent up to now is       10.8 secs

     total energy              =      -1.92524411 Ry
     Harris-Foulkes estimate   =      -2.60401412 Ry
     estimated scf accuracy    <       0.00000212 Ry

     iteration #  2     ecut=    35.00 Ry     beta=0.70
     Davidson diagonalization with overlap
     ethr =  1.06E-07,  avg # of iterations =  2.0

     total cpu time spent up to now is       11.3 secs

     total energy              =      -1.92524446 Ry
     Harris-Foulkes estimate   =      -2.60401255 Ry
     estimated scf accuracy    <          8.5E-09 Ry

     iteration #  3     ecut=    35.00 Ry     beta=0.70
     Davidson diagonalization with overlap
     ethr =  4.26E-10,  avg # of iterations =  2.0

     total cpu time spent up to now is       11.7 secs

     total energy              =      -1.92524446 Ry
     Harris-Foulkes estimate   =      -2.60401254 Ry
     estimated scf accuracy    <          9.2E-11 Ry

     iteration #  4     ecut=    35.00 Ry     beta=0.70
     Davidson diagonalization with overlap
     ethr =  4.62E-12,  avg # of iterations =  1.0

     total cpu time spent up to now is       12.1 secs

     End of self-consistent calculation

          k = 0.0000 0.0000 0.0000 ( 11753 PWs)   bands (ev):

    -8.1837   0.7295   1.6160   1.6160   1.6160   2.5952   2.5952   3.7158

     highest occupied, lowest unoccupied level (ev):    -8.1837    0.7295

!    total energy              =      -1.92524446 Ry
     Harris-Foulkes estimate   =      -2.60401254 Ry
     estimated scf accuracy    <          6.9E-14 Ry

     convergence has been achieved in   4 iterations

     total energy              =      -1.92524693 Ry
     Harris-Foulkes estimate   =      -1.92524693 Ry
     est. exchange err (dexx)  =       0.00000247 Ry
     - averaged Fock potential =       1.35836098 Ry
     + Fock energy             =      -0.67959536 Ry

     EXX: now go back to refine exchange calculation

     total cpu time spent up to now is       12.2 secs

     per-process dynamical memory:    82.3 Mb

     Self-consistent Calculation

     iteration #  1     ecut=    35.00 Ry     beta=0.70
     Davidson diagonalization with overlap
     ethr =  4.62E-12,  avg # of iterations =  4.0

     total cpu time spent up to now is       12.7 secs

     total energy              =      -1.92524802 Ry
     Harris-Foulkes estimate   =      -2.60484381 Ry
     estimated scf accuracy    <       0.00000047 Ry

     iteration #  2     ecut=    35.00 Ry     beta=0.70
     Davidson diagonalization with overlap
     ethr =  2.34E-08,  avg # of iterations =  2.0

     total cpu time spent up to now is       13.1 secs

     total energy              =      -1.92524810 Ry
     Harris-Foulkes estimate   =      -2.60484346 Ry
     estimated scf accuracy    <          2.0E-09 Ry

     iteration #  3     ecut=    35.00 Ry     beta=0.70
     Davidson diagonalization with overlap
     ethr =  9.98E-11,  avg # of iterations =  2.0

     total cpu time spent up to now is       13.6 secs

     total energy              =      -1.92524810 Ry
     Harris-Foulkes estimate   =      -2.60484346 Ry
     estimated scf accuracy    <          2.4E-11 Ry

     iteration #  4     ecut=    35.00 Ry     beta=0.70
     Davidson diagonalization with overlap
     ethr =  1.18E-12,  avg # of iterations =  1.0

     total cpu time spent up to now is       13.9 secs

     End of self-consistent calculation

          k = 0.0000 0.0000 0.0000 ( 11753 PWs)   bands (ev):

    -8.1843   0.7292   1.6183   1.6183   1.6183   2.5955   2.5955   3.7162

     highest occupied, lowest unoccupied level (ev):    -8.1843    0.7292

!    total energy              =      -1.92524810 Ry
     Harris-Foulkes estimate   =      -2.60484346 Ry
     estimated scf accuracy    <          3.1E-14 Ry

     convergence has been achieved in   4 iterations

     total energy              =      -1.92524866 Ry
     Harris-Foulkes estimate   =      -1.92524866 Ry
     est. exchange err (dexx)  =       0.00000056 Ry
     - averaged Fock potential =       1.35958182 Ry
     + Fock energy             =      -0.67998702 Ry

     EXX: now go back to refine exchange calculation

     total cpu time spent up to now is       14.0 secs

     per-process dynamical memory:    82.3 Mb

     Self-consistent Calculation

     iteration #  1     ecut=    35.00 Ry     beta=0.70
     Davidson diagonalization with overlap
     ethr =  1.18E-12,  avg # of iterations =  4.0

     total cpu time spent up to now is       14.5 secs

     total energy              =      -1.92524891 Ry
     Harris-Foulkes estimate   =      -2.60523602 Ry
     estimated scf accuracy    <       0.00000010 Ry

     iteration #  2     ecut=    35.00 Ry     beta=0.70
     Davidson diagonalization with overlap
     ethr =  5.21E-09,  avg # of iterations =  2.0

     total cpu time spent up to now is       14.9 secs

     total energy              =      -1.92524892 Ry
     Harris-Foulkes estimate   =      -2.60523594 Ry
     estimated scf accuracy    <          4.6E-10 Ry

     iteration #  3     ecut=    35.00 Ry     beta=0.70
     Davidson diagonalization with overlap
     ethr =  2.30E-11,  avg # of iterations =  2.0

     total cpu time spent up to now is       15.3 secs

     total energy              =      -1.92524892 Ry
     Harris-Foulkes estimate   =      -2.60523594 Ry
     estimated scf accuracy    <          5.9E-12 Ry

     iteration #  4     ecut=    35.00 Ry     beta=0.70
     Davidson diagonalization with overlap
     ethr =  2.97E-13,  avg # of iterations =  1.0

     total cpu time spent up to now is       15.7 secs

     End of self-consistent calculation

          k = 0.0000 0.0000 0.0000 ( 11753 PWs)   bands (ev):

    -8.1847   0.7291   1.6194   1.6194   1.6194   2.5956   2.5956   3.7164

     highest occupied, lowest unoccupied level (ev):    -8.1847    0.7291

!    total energy              =      -1.92524892 Ry
     Harris-Foulkes estimate   =      -2.60523594 Ry
     estimated scf accuracy    <          7.1E-15 Ry

     convergence has been achieved in   4 iterations

     total energy              =      -1.92524905 Ry
     Harris-Foulkes estimate   =      -1.92524905 Ry
     est. exchange err (dexx)  =       0.00000013 Ry
     - averaged Fock potential =       1.36015968 Ry
     + Fock energy             =      -0.68017279 Ry

     EXX: now go back to refine exchange calculation

     total cpu time spent up to now is       15.8 secs

     per-process dynamical memory:    82.3 Mb

     Self-consistent Calculation

     iteration #  1     ecut=    35.00 Ry     beta=0.70
     Davidson diagonalization with overlap
     ethr =  2.97E-13,  avg # of iterations =  4.0

     total cpu time spent up to now is       16.3 secs

     total energy              =      -1.92524911 Ry
     Harris-Foulkes estimate   =      -2.60542192 Ry
     estimated scf accuracy    <       0.00000002 Ry

     iteration #  2     ecut=    35.00 Ry     beta=0.70
     Davidson diagonalization with overlap
     ethr =  1.17E-09,  avg # of iterations =  2.0

     total cpu time spent up to now is       16.7 secs

     total energy              =      -1.92524911 Ry
     Harris-Foulkes estimate   =      -2.60542190 Ry
     estimated scf accuracy    <          1.1E-10 Ry

     iteration #  3     ecut=    35.00 Ry     beta=0.70
     Davidson diagonalization with overlap
     ethr =  5.28E-12,  avg # of iterations =  2.0

     total cpu time spent up to now is       17.2 secs

     total energy              =      -1.92524911 Ry
     Harris-Foulkes estimate   =      -2.60542190 Ry
     estimated scf accuracy    <          1.4E-12 Ry

     iteration #  4     ecut=    35.00 Ry     beta=0.70
     Davidson diagonalization with overlap
     ethr =  1.00E-13,  avg # of iterations =  1.0

     total cpu time spent up to now is       17.7 secs

     End of self-consistent calculation

          k = 0.0000 0.0000 0.0000 ( 11753 PWs)   bands (ev):

    -8.1848   0.7290   1.6200   1.6200   1.6200   2.5957   2.5957   3.7165

     highest occupied, lowest unoccupied level (ev):    -8.1848    0.7290

!    total energy              =      -1.92524911 Ry
     Harris-Foulkes estimate   =      -2.60542190 Ry
     estimated scf accuracy    <          1.7E-15 Ry

     convergence has been achieved in   4 iterations

     total energy              =      -1.92524914 Ry
     Harris-Foulkes estimate   =      -1.92524914 Ry
     est. exchange err (dexx)  =       0.00000003 Ry
     - averaged Fock potential =       1.36043379 Ry
     + Fock energy             =      -0.68026103 Ry

     EXX: now go back to refine exchange calculation

     total cpu time spent up to now is       17.8 secs

     per-process dynamical memory:    82.3 Mb

     Self-consistent Calculation

     iteration #  1     ecut=    35.00 Ry     beta=0.70
     Davidson diagonalization with overlap
     ethr =  1.00E-13,  avg # of iterations =  4.0

     total cpu time spent up to now is       18.3 secs

     total energy              =      -1.92524915 Ry
     Harris-Foulkes estimate   =      -2.60551019 Ry
     estimated scf accuracy    <          5.3E-09 Ry

     iteration #  2     ecut=    35.00 Ry     beta=0.70
     Davidson diagonalization with overlap
     ethr =  2.63E-10,  avg # of iterations =  2.0

     total cpu time spent up to now is       18.8 secs

     total energy              =      -1.92524915 Ry
     Harris-Foulkes estimate   =      -2.60551018 Ry
     estimated scf accuracy    <          2.4E-11 Ry

     iteration #  3     ecut=    35.00 Ry     beta=0.70
     Davidson diagonalization with overlap
     ethr =  1.21E-12,  avg # of iterations =  2.0

     total cpu time spent up to now is       19.2 secs

     End of self-consistent calculation

          k = 0.0000 0.0000 0.0000 ( 11753 PWs)   bands (ev):

    -8.1849   0.7290   1.6202   1.6202   1.6202   2.5957   2.5957   3.7166

     highest occupied, lowest unoccupied level (ev):    -8.1849    0.7290

!    total energy              =      -1.92524915 Ry
     Harris-Foulkes estimate   =      -2.60551018 Ry
     estimated scf accuracy    <          3.4E-13 Ry

     convergence has been achieved in   3 iterations

     total energy              =      -1.92524916 Ry
     Harris-Foulkes estimate   =      -1.92524916 Ry
     est. exchange err (dexx)  =       0.00000001 Ry
     - averaged Fock potential =       1.36056401 Ry
     + Fock energy             =      -0.68030299 Ry

     EXX: now go back to refine exchange calculation

     total cpu time spent up to now is       19.3 secs

     per-process dynamical memory:    82.3 Mb

     Self-consistent Calculation

     iteration #  1     ecut=    35.00 Ry     beta=0.70
     Davidson diagonalization with overlap
     ethr =  1.21E-12,  avg # of iterations =  3.0

     total cpu time spent up to now is       19.8 secs

     total energy              =      -1.92524916 Ry
     Harris-Foulkes estimate   =      -2.60555215 Ry
     estimated scf accuracy    <          1.2E-09 Ry

     iteration #  2     ecut=    35.00 Ry     beta=0.70
     Davidson diagonalization with overlap
     ethr =  5.93E-11,  avg # of iterations =  2.0

     total cpu time spent up to now is       20.2 secs

     total energy              =      -1.92524916 Ry
     Harris-Foulkes estimate   =      -2.60555215 Ry
     estimated scf accuracy    <          5.5E-12 Ry

     iteration #  3     ecut=    35.00 Ry     beta=0.70
     Davidson diagonalization with overlap
     ethr =  2.74E-13,  avg # of iterations =  2.0

     total cpu time spent up to now is       20.7 secs

     End of self-consistent calculation

          k = 0.0000 0.0000 0.0000 ( 11753 PWs)   bands (ev):

    -8.1849   0.7290   1.6203   1.6203   1.6203   2.5957   2.5957   3.7166

     highest occupied, lowest unoccupied level (ev):    -8.1849    0.7290

!    total energy              =      -1.92524916 Ry
     Harris-Foulkes estimate   =      -2.60555215 Ry
     estimated scf accuracy    <          8.2E-14 Ry

     convergence has been achieved in   3 iterations

     total energy              =      -1.92524916 Ry
     Harris-Foulkes estimate   =      -1.92524916 Ry
     est. exchange err (dexx)  =       0.00000000 Ry
     - averaged Fock potential =       1.36062593 Ry
     + Fock energy             =      -0.68032295 Ry

     EXX: now go back to refine exchange calculation

     total cpu time spent up to now is       20.7 secs

     per-process dynamical memory:    82.3 Mb

     Self-consistent Calculation

     iteration #  1     ecut=    35.00 Ry     beta=0.70
     Davidson diagonalization with overlap
     ethr =  2.74E-13,  avg # of iterations =  3.0

     total cpu time spent up to now is       21.2 secs

     total energy              =      -1.92524917 Ry
     Harris-Foulkes estimate   =      -2.60557211 Ry
     estimated scf accuracy    <          2.7E-10 Ry

     iteration #  2     ecut=    35.00 Ry     beta=0.70
     Davidson diagonalization with overlap
     ethr =  1.34E-11,  avg # of iterations =  2.0

     total cpu time spent up to now is       21.7 secs

     total energy              =      -1.92524917 Ry
     Harris-Foulkes estimate   =      -2.60557211 Ry
     estimated scf accuracy    <          1.2E-12 Ry

     iteration #  3     ecut=    35.00 Ry     beta=0.70
     Davidson diagonalization with overlap
     ethr =  1.00E-13,  avg # of iterations =  1.0

     total cpu time spent up to now is       22.1 secs

     End of self-consistent calculation

          k = 0.0000 0.0000 0.0000 ( 11753 PWs)   bands (ev):

    -8.1849   0.7290   1.6204   1.6204   1.6204   2.5957   2.5957   3.7166

     highest occupied, lowest unoccupied level (ev):    -8.1849    0.7290

!    total energy              =      -1.92524917 Ry
     Harris-Foulkes estimate   =      -2.60557211 Ry
     estimated scf accuracy    <          2.2E-14 Ry

     convergence has been achieved in   3 iterations

     total energy              =      -1.92524917 Ry
     Harris-Foulkes estimate   =      -1.92524917 Ry
     est. exchange err (dexx)  =       0.00000000 Ry
     - averaged Fock potential =       1.36065540 Ry
     + Fock energy             =      -0.68033245 Ry

     EXX: now go back to refine exchange calculation

     total cpu time spent up to now is       22.1 secs

     per-process dynamical memory:    82.3 Mb

     Self-consistent Calculation

     iteration #  1     ecut=    35.00 Ry     beta=0.70
     Davidson diagonalization with overlap
     ethr =  1.00E-13,  avg # of iterations =  3.0

     total cpu time spent up to now is       22.6 secs

     total energy              =      -1.92524917 Ry
     Harris-Foulkes estimate   =      -2.60558162 Ry
     estimated scf accuracy    <          6.1E-11 Ry

     iteration #  2     ecut=    35.00 Ry     beta=0.70
     Davidson diagonalization with overlap
     ethr =  3.04E-12,  avg # of iterations =  2.0

     total cpu time spent up to now is       23.1 secs

     End of self-consistent calculation

          k = 0.0000 0.0000 0.0000 ( 11753 PWs)   bands (ev):

    -8.1849   0.7290   1.6204   1.6204   1.6204   2.5957   2.5957   3.7166

     highest occupied, lowest unoccupied level (ev):    -8.1849    0.7290

!    total energy              =      -1.92524917 Ry
     Harris-Foulkes estimate   =      -2.60558162 Ry
     estimated scf accuracy    <          2.8E-13 Ry

     convergence has been achieved in   2 iterations

     total energy              =      -1.92524917 Ry
     Harris-Foulkes estimate   =      -1.92524917 Ry
     est. exchange err (dexx)  =       0.00000000 Ry
     - averaged Fock potential =       1.36066951 Ry
     + Fock energy             =      -0.68033706 Ry

     EXX: now go back to refine exchange calculation

     total cpu time spent up to now is       23.1 secs

     per-process dynamical memory:    82.3 Mb

     Self-consistent Calculation

     iteration #  1     ecut=    35.00 Ry     beta=0.70
     Davidson diagonalization with overlap
     ethr =  3.04E-12,  avg # of iterations =  2.0

     total cpu time spent up to now is       23.5 secs

     total energy              =      -1.92524917 Ry
     Harris-Foulkes estimate   =      -2.60558623 Ry
     estimated scf accuracy    <          1.3E-11 Ry

     iteration #  2     ecut=    35.00 Ry     beta=0.70
     Davidson diagonalization with overlap
     ethr =  6.58E-13,  avg # of iterations =  2.0

     total cpu time spent up to now is       23.9 secs

     End of self-consistent calculation

          k = 0.0000 0.0000 0.0000 ( 11753 PWs)   bands (ev):

    -8.1849   0.7290   1.6204   1.6204   1.6204   2.5957   2.5957   3.7166

     highest occupied, lowest unoccupied level (ev):    -8.1849    0.7290

!    total energy              =      -1.92524917 Ry
     Harris-Foulkes estimate   =      -2.60558623 Ry
     estimated scf accuracy    <          6.1E-14 Ry

     convergence has been achieved in   2 iterations

     total energy              =      -1.92524917 Ry
     Harris-Foulkes estimate   =      -1.92524917 Ry
     est. exchange err (dexx)  =       0.00000000 Ry
     - averaged Fock potential =       1.36067627 Ry
     + Fock energy             =      -0.68033921 Ry

     EXX: now go back to refine exchange calculation

     total cpu time spent up to now is       24.0 secs

     per-process dynamical memory:    82.3 Mb

     Self-consistent Calculation

     iteration #  1     ecut=    35.00 Ry     beta=0.70
     Davidson diagonalization with overlap
     ethr =  6.58E-13,  avg # of iterations =  2.0

     total cpu time spent up to now is       24.4 secs

     total energy              =      -1.92524917 Ry
     Harris-Foulkes estimate   =      -2.60558838 Ry
     estimated scf accuracy    <          2.9E-12 Ry

     iteration #  2     ecut=    35.00 Ry     beta=0.70
     Davidson diagonalization with overlap
     ethr =  1.43E-13,  avg # of iterations =  2.0

     total cpu time spent up to now is       24.8 secs

     End of self-consistent calculation

          k = 0.0000 0.0000 0.0000 ( 11753 PWs)   bands (ev):

    -8.1849   0.7290   1.6205   1.6205   1.6205   2.5957   2.5957   3.7166

     highest occupied, lowest unoccupied level (ev):    -8.1849    0.7290

!    total energy              =      -1.92524917 Ry
     Harris-Foulkes estimate   =      -2.60558838 Ry
     estimated scf accuracy    <          1.3E-14 Ry

     convergence has been achieved in   2 iterations

     total energy              =      -1.92524917 Ry
     Harris-Foulkes estimate   =      -1.92524917 Ry
     est. exchange err (dexx)  =       0.00000000 Ry
     - averaged Fock potential =       1.36067942 Ry
     + Fock energy             =      -0.68034021 Ry

     EXX: now go back to refine exchange calculation

     total cpu time spent up to now is       24.9 secs

     per-process dynamical memory:    82.3 Mb

     Self-consistent Calculation

     iteration #  1     ecut=    35.00 Ry     beta=0.70
     Davidson diagonalization with overlap
     ethr =  1.43E-13,  avg # of iterations =  2.0

     total cpu time spent up to now is       25.3 secs

     total energy              =      -1.92524917 Ry
     Harris-Foulkes estimate   =      -2.60558938 Ry
     estimated scf accuracy    <          6.2E-13 Ry

     iteration #  2     ecut=    35.00 Ry     beta=0.70
     Davidson diagonalization with overlap
     ethr =  1.00E-13,  avg # of iterations =  1.0

     total cpu time spent up to now is       25.7 secs

     End of self-consistent calculation

          k = 0.0000 0.0000 0.0000 ( 11753 PWs)   bands (ev):

    -8.1849   0.7290   1.6205   1.6205   1.6205   2.5957   2.5957   3.7166

     highest occupied, lowest unoccupied level (ev):    -8.1849    0.7290

!    total energy              =      -1.92524917 Ry
     Harris-Foulkes estimate   =      -2.60558938 Ry
     estimated scf accuracy    <          3.7E-15 Ry

     convergence has been achieved in   2 iterations

     total energy              =      -1.92524917 Ry
     Harris-Foulkes estimate   =      -1.92524917 Ry
     est. exchange err (dexx)  =       0.00000000 Ry
     - averaged Fock potential =       1.36068089 Ry
     + Fock energy             =      -0.68034068 Ry

     EXX: now go back to refine exchange calculation

     total cpu time spent up to now is       25.7 secs

     per-process dynamical memory:    82.3 Mb

     Self-consistent Calculation

     iteration #  1     ecut=    35.00 Ry     beta=0.70
     Davidson diagonalization with overlap
     ethr =  1.00E-13,  avg # of iterations =  2.0

     Threshold (ethr) on eigenvalues was too large:
     Diagonalizing with lowered threshold

     Davidson diagonalization with overlap
     ethr =  6.69E-15,  avg # of iterations =  1.0

     total cpu time spent up to now is       26.5 secs

     End of self-consistent calculation

          k = 0.0000 0.0000 0.0000 ( 11753 PWs)   bands (ev):

    -8.1849   0.7290   1.6205   1.6205   1.6205   2.5957   2.5957   3.7166

     highest occupied, lowest unoccupied level (ev):    -8.1849    0.7290

!    total energy              =      -1.92524917 Ry
     Harris-Foulkes estimate   =      -2.60558985 Ry
     estimated scf accuracy    <          1.3E-13 Ry

     convergence has been achieved in   1 iterations

!    total energy              =      -1.92524917 Ry
     Harris-Foulkes estimate   =      -1.92524917 Ry
     est. exchange err (dexx)  =       0.00000000 Ry
     - averaged Fock potential =       1.36068165 Ry
     + Fock energy             =      -0.68034096 Ry

     EXX self-consistency reached

     Writing output data file Be-1.save
 
     init_run     :      0.12s CPU      0.13s WALL (       1 calls)
     electrons    :     25.06s CPU     25.78s WALL (      16 calls)

     Called by init_run:
     wfcinit      :      0.06s CPU      0.06s WALL (       1 calls)
     potinit      :      0.03s CPU      0.03s WALL (       1 calls)

     Called by electrons:
     c_bands      :     21.48s CPU     22.01s WALL (      60 calls)
     sum_band     :      2.10s CPU      2.12s WALL (      60 calls)
     v_of_rho     :      0.59s CPU      0.59s WALL (      60 calls)
     mix_rho      :      0.60s CPU      0.71s WALL (      60 calls)

     Called by c_bands:
     init_us_2    :      0.18s CPU      0.18s WALL (     152 calls)
     cegterg      :     21.36s CPU     21.89s WALL (      60 calls)

     Called by sum_band:

     Called by *egterg:
     h_psi        :     20.87s CPU     21.34s WALL (     210 calls)
     g_psi        :      0.04s CPU      0.05s WALL (     149 calls)
     cdiaghg      :      0.02s CPU      0.03s WALL (     192 calls)

     Called by h_psi:
     h_psi:pot    :      5.94s CPU      6.02s WALL (     210 calls)
     h_psi:calbec :      0.06s CPU      0.05s WALL (     210 calls)
     vloc_psi     :      5.85s CPU      5.93s WALL (     210 calls)
     add_vuspsi   :      0.03s CPU      0.03s WALL (     210 calls)

     General routines
     calbec       :      0.07s CPU      0.06s WALL (     241 calls)
     fft          :      0.73s CPU      0.73s WALL (     225 calls)
     fftw         :      6.59s CPU      6.67s WALL (    2726 calls)
     fftc         :      5.50s CPU      5.63s WALL (    1869 calls)
     fftcw        :      4.50s CPU      4.56s WALL (    1885 calls)
 
     Parallel routines
     fft_scatter  :      1.42s CPU      1.49s WALL (    6705 calls)

     EXX routines
     exx_grid     :      0.00s CPU      0.00s WALL (       1 calls)
     exxinit      :      0.24s CPU      0.24s WALL (      16 calls)
     vexx         :     14.89s CPU     15.28s WALL (     170 calls)
     exxenergy    :      0.36s CPU      0.36s WALL (      31 calls)
 
     PWSCF        :    25.83s CPU        26.58s WALL

 
   This run was terminated on:  21: 2:48   4Oct2016            

=------------------------------------------------------------------------------=
   JOB DONE.
=------------------------------------------------------------------------------=
