
     Program PWSCF v.6.0 (svn rev. 13079) starts on  5Oct2016 at  9: 6:56 

     This program is part of the open-source Quantum ESPRESSO suite
     for quantum simulation of materials; please cite
         "P. Giannozzi et al., J. Phys.:Condens. Matter 21 395502 (2009);
          URL http://www.quantum-espresso.org", 
     in publications or presentations arising from this work. More details at
     http://www.quantum-espresso.org/quote

     Parallel version (MPI), running on     8 processors
     R & G space division:  proc/nbgrp/npool/nimage =       8
     Waiting for input...
     Reading input from standard input
     Message from routine read_cards :
     DEPRECATED: no units specified in ATOMIC_POSITIONS card
     Message from routine read_cards :
     ATOMIC_POSITIONS: units set to alat

     Current dimensions of program PWSCF are:
     Max number of different atomic species (ntypx) = 10
     Max number of k-points (npk) =  40000
     Max angular momentum in pseudopotentials (lmaxx) =  3
               file Be.EXX-fhi.UPF: wavefunction(s)  3S renormalized

     Subspace diagonalization in iterative solution of the eigenvalue problem:
     a serial algorithm will be used

     Message from routine kpoint_grid:
     ATTENTION: skip check of k-points equivalence
 
     Parallelization info
     --------------------
     sticks:   dense  smooth     PW     G-vecs:    dense   smooth      PW
     Min         313     313     77                11792    11792    1467
     Max         315     315     78                11793    11793    1470
     Sum        2509    2509    621                94341    94341   11753
 


     bravais-lattice index     =            1
     lattice parameter (alat)  =      15.0000  a.u.
     unit-cell volume          =    3375.0000 (a.u.)^3
     number of atoms/cell      =            1
     number of atomic types    =            1
     number of electrons       =         2.00
     number of Kohn-Sham states=            4
     kinetic-energy cutoff     =      35.0000  Ry
     charge density cutoff     =     140.0000  Ry
     convergence threshold     =      5.0E-13
     mixing beta               =       0.7000
     number of iterations used =            8  plain     mixing
     Exchange-correlation      = SLA  PZ   NOGX NOGC ( 1  1  0  0 0 0)

     celldm(1)=  15.000000  celldm(2)=   0.000000  celldm(3)=   0.000000
     celldm(4)=   0.000000  celldm(5)=   0.000000  celldm(6)=   0.000000

     crystal axes: (cart. coord. in units of alat)
               a(1) = (   1.000000   0.000000   0.000000 )  
               a(2) = (   0.000000   1.000000   0.000000 )  
               a(3) = (   0.000000   0.000000   1.000000 )  

     reciprocal axes: (cart. coord. in units 2 pi/alat)
               b(1) = (  1.000000  0.000000  0.000000 )  
               b(2) = (  0.000000  1.000000  0.000000 )  
               b(3) = (  0.000000  0.000000  1.000000 )  


     PseudoPot. # 1 for Be read from file:
     ../pseudo/Be.EXX-fhi.UPF
     MD5 check sum: 17e503e2df6aa395e6988bd959d3fa42
     Pseudo is Norm-conserving, Zval =  2.0
     Generated by new atomic code, or converted to UPF format
     Using radial grid of  445 points,  2 beta functions with: 
                l(1) =   0
                l(2) =   1

     atomic species   valence    mass     pseudopotential
        Be             2.00     9.01218     Be( 1.00)

     No symmetry found



   Cartesian axes

     site n.     atom                  positions (alat units)
         1           Be  tau(   1) = (   0.0000000   0.0000000   0.0000000  )

     number of k points=     1
                       cart. coord. in units 2pi/alat
        k(    1) = (   0.0000000   0.0000000   0.0000000), wk =   2.0000000

     Dense  grid:    94341 G-vectors     FFT dimensions: (  60,  60,  60)

     Estimated max dynamical RAM per process >       7.25Mb

     Estimated total allocated dynamical RAM >      57.99Mb

     Initial potential from superposition of free atoms

     starting charge    1.99987, renormalised to    2.00000

     negative rho (up, down):  1.608E-06 0.000E+00
     Starting wfc are    9 randomized atomic wfcs

     total cpu time spent up to now is        0.1 secs

     per-process dynamical memory:    22.1 Mb

     Self-consistent Calculation

     iteration #  1     ecut=    35.00 Ry     beta=0.70
     Davidson diagonalization with overlap
     ethr =  1.00E-02,  avg # of iterations =  1.0

     Threshold (ethr) on eigenvalues was too large:
     Diagonalizing with lowered threshold

     Davidson diagonalization with overlap
     ethr =  6.74E-06,  avg # of iterations =  3.0

     total cpu time spent up to now is        0.1 secs

     total energy              =      -1.96979021 Ry
     Harris-Foulkes estimate   =      -1.96980828 Ry
     estimated scf accuracy    <       0.00012580 Ry

     iteration #  2     ecut=    35.00 Ry     beta=0.70
     Davidson diagonalization with overlap
     ethr =  6.29E-06,  avg # of iterations =  1.0

     total cpu time spent up to now is        0.1 secs

     total energy              =      -1.96980059 Ry
     Harris-Foulkes estimate   =      -1.96979787 Ry
     estimated scf accuracy    <       0.00000328 Ry

     iteration #  3     ecut=    35.00 Ry     beta=0.70
     Davidson diagonalization with overlap
     ethr =  1.64E-07,  avg # of iterations =  2.0

     total cpu time spent up to now is        0.2 secs

     total energy              =      -1.96980180 Ry
     Harris-Foulkes estimate   =      -1.96980167 Ry
     estimated scf accuracy    <       0.00000022 Ry

     iteration #  4     ecut=    35.00 Ry     beta=0.70
     Davidson diagonalization with overlap
     ethr =  1.10E-08,  avg # of iterations =  2.0

     total cpu time spent up to now is        0.2 secs

     total energy              =      -1.96980182 Ry
     Harris-Foulkes estimate   =      -1.96980183 Ry
     estimated scf accuracy    <       0.00000002 Ry

     iteration #  5     ecut=    35.00 Ry     beta=0.70
     Davidson diagonalization with overlap
     ethr =  8.95E-10,  avg # of iterations =  2.0

     total cpu time spent up to now is        0.2 secs

     total energy              =      -1.96980183 Ry
     Harris-Foulkes estimate   =      -1.96980183 Ry
     estimated scf accuracy    <          1.9E-10 Ry

     iteration #  6     ecut=    35.00 Ry     beta=0.70
     Davidson diagonalization with overlap
     ethr =  9.32E-12,  avg # of iterations =  1.0

     total cpu time spent up to now is        0.2 secs

     total energy              =      -1.96980183 Ry
     Harris-Foulkes estimate   =      -1.96980183 Ry
     estimated scf accuracy    <          6.6E-12 Ry

     iteration #  7     ecut=    35.00 Ry     beta=0.70
     Davidson diagonalization with overlap
     ethr =  3.28E-13,  avg # of iterations =  2.0

     total cpu time spent up to now is        0.2 secs

     total energy              =      -1.96980183 Ry
     Harris-Foulkes estimate   =      -1.96980183 Ry
     estimated scf accuracy    <          1.2E-12 Ry

     iteration #  8     ecut=    35.00 Ry     beta=0.70
     Davidson diagonalization with overlap
     ethr =  1.00E-13,  avg # of iterations =  1.0

     total cpu time spent up to now is        0.3 secs

     End of self-consistent calculation

          k = 0.0000 0.0000 0.0000 ( 11753 PWs)   bands (ev):

    -5.3415  -1.7025  -1.7025  -1.7025

     highest occupied, lowest unoccupied level (ev):    -5.3415   -1.7025

!    total energy              =      -1.96980183 Ry
     Harris-Foulkes estimate   =      -1.96980183 Ry
     estimated scf accuracy    <          1.9E-13 Ry

     The total energy is the sum of the following terms:

     one-electron contribution =      -1.13404304 Ry
     hartree contribution      =       0.64649918 Ry
     xc contribution           =      -0.72564524 Ry
     ewald contribution        =      -0.75661271 Ry

     convergence has been achieved in   8 iterations

     Writing output data file Be-1.save
 
     init_run     :      0.05s CPU      0.06s WALL (       1 calls)
     electrons    :      0.20s CPU      0.20s WALL (       1 calls)

     Called by init_run:
     wfcinit      :      0.01s CPU      0.01s WALL (       1 calls)
     potinit      :      0.01s CPU      0.01s WALL (       1 calls)

     Called by electrons:
     c_bands      :      0.10s CPU      0.10s WALL (       9 calls)
     sum_band     :      0.04s CPU      0.04s WALL (       9 calls)
     v_of_rho     :      0.03s CPU      0.03s WALL (       9 calls)
     mix_rho      :      0.02s CPU      0.02s WALL (       9 calls)

     Called by c_bands:
     init_us_2    :      0.00s CPU      0.00s WALL (      19 calls)
     cegterg      :      0.10s CPU      0.10s WALL (       9 calls)

     Called by sum_band:

     Called by *egterg:
     h_psi        :      0.10s CPU      0.10s WALL (      25 calls)
     g_psi        :      0.00s CPU      0.00s WALL (      15 calls)
     cdiaghg      :      0.00s CPU      0.00s WALL (      23 calls)

     Called by h_psi:
     h_psi:pot    :      0.10s CPU      0.10s WALL (      25 calls)
     h_psi:calbec :      0.00s CPU      0.00s WALL (      25 calls)
     vloc_psi     :      0.10s CPU      0.10s WALL (      25 calls)
     add_vuspsi   :      0.00s CPU      0.00s WALL (      25 calls)

     General routines
     calbec       :      0.00s CPU      0.00s WALL (      25 calls)
     fft          :      0.03s CPU      0.03s WALL (      37 calls)
     fftw         :      0.12s CPU      0.11s WALL (     220 calls)
 
     Parallel routines
     fft_scatter  :      0.07s CPU      0.06s WALL (     257 calls)
 
     PWSCF        :     0.30s CPU         0.31s WALL

 
   This run was terminated on:   9: 6:57   5Oct2016            

=------------------------------------------------------------------------------=
   JOB DONE.
=------------------------------------------------------------------------------=
